<?xml version="1.0" encoding="UTF-8" standalone="no"?>
<!-- Created with Inkscape (http://www.inkscape.org/) -->

<svg
   width="7in"
   height="7in"
   viewBox="0 0 177.8 177.8"
   version="1.1"
   id="svg483"
   sodipodi:docname="button.svg"
   inkscape:version="1.2 (dc2aeda, 2022-05-15)"
   inkscape:export-filename="button.png"
   inkscape:export-xdpi="96"
   inkscape:export-ydpi="96"
   xmlns:inkscape="http://www.inkscape.org/namespaces/inkscape"
   xmlns:sodipodi="http://sodipodi.sourceforge.net/DTD/sodipodi-0.dtd"
   xmlns:xlink="http://www.w3.org/1999/xlink"
   xmlns="http://www.w3.org/2000/svg"
   xmlns:svg="http://www.w3.org/2000/svg"
   xmlns:ns2="http://ns.adobe.com/AdobeIllustrator/10.0/">
  <sodipodi:namedview
     id="namedview485"
     pagecolor="#ffffff"
     bordercolor="#666666"
     borderopacity="1.0"
     inkscape:showpageshadow="2"
     inkscape:pageopacity="0.0"
     inkscape:pagecheckerboard="0"
     inkscape:deskcolor="#d1d1d1"
     inkscape:document-units="mm"
     showgrid="false"
     inkscape:zoom="0.088388348"
     inkscape:cx="-2392.8493"
     inkscape:cy="-1425.5273"
     inkscape:window-width="1440"
     inkscape:window-height="872"
     inkscape:window-x="0"
     inkscape:window-y="28"
     inkscape:window-maximized="0"
     inkscape:current-layer="layer1" />
  <defs
     id="defs480">
    <linearGradient
       inkscape:collect="always"
       id="linearGradient6314">
      <stop
         style="stop-color:#ffa722;stop-opacity:1;"
         offset="0"
         id="stop6310" />
      <stop
         style="stop-color:#ffc927;stop-opacity:1;"
         offset="1"
         id="stop6312" />
    </linearGradient>
    <linearGradient
       inkscape:collect="always"
       xlink:href="#linearGradient6314"
       id="linearGradient1006"
       gradientUnits="userSpaceOnUse"
       gradientTransform="matrix(1.8369995,0,0,1.8369995,-597.86984,-147.98339)"
       x1="437.82001"
       y1="362.86563"
       x2="498.4632"
       y2="362.86563" />
  </defs>
  <g
     inkscape:label="Layer 1"
     inkscape:groupmode="layer"
     id="layer1">
    <text
       xml:space="preserve"
       style="font-style:normal;font-variant:normal;font-weight:normal;font-stretch:normal;font-size:33.6592px;line-height:1.25;font-family:Futura;-inkscape-font-specification:'Futura, Normal';font-variant-ligatures:normal;font-variant-caps:normal;font-variant-numeric:normal;font-variant-east-asian:normal;fill:#7a0023;fill-opacity:1;stroke:none;stroke-width:0.841474;stroke-opacity:1"
       x="-340.5444"
       y="-106.42238"
       id="text13715"><tspan
         sodipodi:role="line"
         id="tspan13713"
         style="font-style:normal;font-variant:normal;font-weight:normal;font-stretch:normal;font-size:33.6592px;font-family:Futura;-inkscape-font-specification:'Futura, Normal';font-variant-ligatures:normal;font-variant-caps:normal;font-variant-numeric:normal;font-variant-east-asian:normal;fill:#7a0023;fill-opacity:1;stroke:none;stroke-width:0.841474;stroke-opacity:1"
         x="-340.5444"
         y="-106.42238" /></text>
    <g
       id="g15470"
       transform="translate(-184.09526,154.16107)"
       inkscape:export-filename="button.png"
       inkscape:export-xdpi="96"
       inkscape:export-ydpi="96">
      <circle
         id="path9717-8"
         style="fill:#000000;stroke:none;stroke-width:0.15681"
         cx="320.6918"
         cy="-151.91751"
         r="0.23521458" />
      <rect
         style="fill:#ffffff;fill-opacity:1;stroke:none;stroke-width:1.62067;stroke-linecap:round;stroke-dasharray:none;stroke-opacity:1"
         id="rect13701-5-2"
         width="177.8"
         height="177.8"
         x="184.09526"
         y="-154.16107"
         ry="88.900002"
         inkscape:export-filename="logonew.png"
         inkscape:export-xdpi="96"
         inkscape:export-ydpi="96" />
      <g
         id="g5059"
         transform="translate(38.969252,-526.77604)">
        <g
           id="g5005" />
        <g
           id="g1217"
           transform="matrix(0.59266666,0,0,0.59266666,79.911444,159.64978)">
          <path
             style="fill:none;stroke:#a7c215;stroke-width:4.71336;stroke-linecap:round;stroke-linejoin:miter;stroke-dasharray:none;stroke-opacity:1"
             d="m 254.36027,464.23345 c 1.64231,-44.09519 28.83387,-36.93885 28.83387,-36.93885"
             id="path13719-8-6" />
          <path
             style="color:#000000;fill:url(#linearGradient1006);fill-opacity:1;stroke-width:0.71257"
             d="m 251.82859,446.54538 c -6.42285,1.88779 -14.79792,5.2213 -22.60486,11.00336 -15.61388,11.5641 -28.95072,32.94002 -19.85741,72.07751 9.09348,39.13824 31.49492,54.64858 51.61491,60.35404 20.11997,5.70553 37.96336,1.61957 37.96336,1.61957 0.0329,-6.8e-4 5.48264,-0.0622 9.36906,-3.6645 1.94907,-1.80661 3.49609,-4.50677 3.75259,-8.51516 0.25648,-4.00844 -0.77321,-9.32429 -3.96312,-16.38226 -3.76874,-8.33863 -4.64562,-14.58914 -3.96706,-19.96746 0.67855,-5.37829 2.91566,-9.89031 5.39387,-14.74134 4.95646,-9.70195 10.86439,-20.75886 7.06525,-42.74076 -3.80095,-21.99247 -17.27631,-32.34879 -29.79106,-37.19055 -12.51473,-4.84175 -24.0777,-4.18319 -24.0777,-4.18319 l -0.004,7.3e-4 -10e-4,3.7e-4 c 0,0 -4.47093,0.44189 -10.8938,2.32968 z"
             id="path13721-6-2" />
          <g
             style="overflow:visible;fill:#ffffff"
             id="g13751-2-2"
             transform="matrix(1.3242692,-0.35483684,0.35483684,1.3242692,407.2552,393.29112)">
            <g
               id="g13749-5-5"
               ns2:layer="yes"
               ns2:dimmedPercent="50"
               ns2:rgbTrio="#4F008000FFFF"
               transform="translate(-167.77498,8.5032154)"
               style="fill:#ffffff">
              <g
                 id="g13747-1-2"
                 style="fill:#ffffff">
                <path
                   ns2:knockout="Off"
                   fill="#a80030"
                   d="m 51.986,57.297 c -1.797,0.025 0.34,0.926 2.686,1.287 0.648,-0.506 1.236,-1.018 1.76,-1.516 -1.461,0.358 -2.948,0.366 -4.446,0.229"
                   id="path13723-3-2"
                   style="fill:#ffffff" />
                <path
                   ns2:knockout="Off"
                   fill="#a80030"
                   d="m 61.631,54.893 c 1.07,-1.477 1.85,-3.094 2.125,-4.766 -0.24,1.192 -0.887,2.221 -1.496,3.307 -3.359,2.115 -0.316,-1.256 -0.002,-2.537 -3.612,4.546 -0.496,2.726 -0.627,3.996"
                   id="path13725-9-7"
                   style="fill:#ffffff" />
                <path
                   ns2:knockout="Off"
                   fill="#a80030"
                   d="m 65.191,45.629 c 0.217,-3.236 -0.637,-2.213 -0.924,-0.978 0.335,0.174 0.6,2.281 0.924,0.978"
                   id="path13727-7-1"
                   style="fill:#ffffff" />
                <path
                   ns2:knockout="Off"
                   fill="#a80030"
                   d="m 45.172,1.399 c 0.959,0.172 2.072,0.304 1.916,0.533 1.049,-0.23 1.287,-0.442 -1.916,-0.533"
                   id="path13729-3-5"
                   style="fill:#ffffff" />
                <path
                   ns2:knockout="Off"
                   fill="#a80030"
                   d="M 47.088,1.932 46.41,2.072 47.041,2.016 47.088,1.932"
                   id="path13731-7-2"
                   style="fill:#ffffff" />
                <path
                   ns2:knockout="Off"
                   fill="#a80030"
                   d="m 76.992,46.856 c 0.107,2.906 -0.85,4.316 -1.713,6.812 l -1.553,0.776 c -1.271,2.468 0.123,1.567 -0.787,3.53 -1.984,1.764 -6.021,5.52 -7.313,5.863 -0.943,-0.021 0.639,-1.113 0.846,-1.541 -2.656,1.824 -2.131,2.738 -6.193,3.846 L 60.16,65.878 C 50.142,70.591 36.226,61.251 36.409,48.507 c -0.107,0.809 -0.304,0.607 -0.526,0.934 -0.517,-6.557 3.028,-13.143 9.007,-15.832 5.848,-2.895 12.704,-1.707 16.893,2.197 -2.301,-3.014 -6.881,-6.209 -12.309,-5.91 -5.317,0.084 -10.291,3.463 -11.951,7.131 -2.724,1.715 -3.04,6.611 -4.227,7.507 -1.597,11.737 3.004,16.808 10.787,22.773 1.225,0.826 0.345,0.951 0.511,1.58 -2.586,-1.211 -4.954,-3.039 -6.901,-5.277 1.033,1.512 2.148,2.982 3.589,4.137 -2.438,-0.826 -5.695,-5.908 -6.646,-6.115 4.203,7.525 17.052,13.197 23.78,10.383 -3.113,0.115 -7.068,0.064 -10.566,-1.229 -1.469,-0.756 -3.467,-2.322 -3.11,-2.615 9.182,3.43 18.667,2.598 26.612,-3.771 2.021,-1.574 4.229,-4.252 4.867,-4.289 -0.961,1.445 0.164,0.695 -0.574,1.971 2.014,-3.248 -0.875,-1.322 2.082,-5.609 l 1.092,1.504 c -0.406,-2.696 3.348,-5.97 2.967,-10.234 0.861,-1.304 0.961,1.403 0.047,4.403 1.268,-3.328 0.334,-3.863 0.66,-6.609 0.352,0.923 0.814,1.904 1.051,2.878 -0.826,-3.216 0.848,-5.416 1.262,-7.285 -0.408,-0.181 -1.275,1.422 -1.473,-2.377 0.029,-1.65 0.459,-0.865 0.625,-1.271 -0.324,-0.186 -1.174,-1.451 -1.691,-3.877 0.375,-0.57 1.002,1.478 1.512,1.562 -0.328,-1.929 -0.893,-3.4 -0.916,-4.88 -1.49,-3.114 -0.527,0.415 -1.736,-1.337 -1.586,-4.947 1.316,-1.148 1.512,-3.396 2.404,3.483 3.775,8.881 4.404,11.117 -0.48,-2.726 -1.256,-5.367 -2.203,-7.922 0.73,0.307 -1.176,-5.609 0.949,-1.691 C 83.519,18.706 76.074,10.902 69.225,7.24 70.063,8.007 71.121,8.97 70.741,9.121 67.335,7.093 67.934,6.935 67.446,6.078 64.671,4.949 64.489,6.169 62.651,6.08 57.421,3.306 56.413,3.601 51.6,1.863 l 0.219,1.023 c -3.465,-1.154 -4.037,0.438 -7.782,0.004 -0.228,-0.178 1.2,-0.644 2.375,-0.815 -3.35,0.442 -3.193,-0.66 -6.471,0.122 0.808,-0.567 1.662,-0.942 2.524,-1.424 -2.732,0.166 -6.522,1.59 -5.352,0.295 -4.456,1.988 -12.37,4.779 -16.811,8.943 l -0.14,-0.933 c -2.035,2.443 -8.874,7.296 -9.419,10.46 l -0.544,0.127 c -1.059,1.793 -1.744,3.825 -2.584,5.67 -1.385,2.36 -2.03,0.908 -1.833,1.278 -2.724,5.523 -4.077,10.164 -5.246,13.97 0.833,1.245 0.02,7.495 0.335,12.497 -1.368,24.704 17.338,48.69 37.785,54.228 2.997,1.072 7.454,1.031 11.245,1.141 -4.473,-1.279 -5.051,-0.678 -9.408,-2.197 -3.143,-1.48 -3.832,-3.17 -6.058,-5.102 l 0.881,1.557 c -4.366,-1.545 -2.539,-1.912 -6.091,-3.037 l 0.941,-1.229 C 28.751,98.334 26.418,96.056 25.78,94.795 l -1.548,0.061 c -1.86,-2.295 -2.851,-3.949 -2.779,-5.23 l -0.5,0.891 c -0.567,-0.973 -6.843,-8.607 -3.587,-6.83 -0.605,-0.553 -1.409,-0.9 -2.281,-2.484 l 0.663,-0.758 c -1.567,-2.016 -2.884,-4.6 -2.784,-5.461 0.836,1.129 1.416,1.34 1.99,1.533 -3.957,-9.818 -4.179,-0.541 -7.176,-9.994 L 8.412,66.472 C 7.926,65.74 7.631,64.945 7.24,64.165 l 0.276,-2.75 C 4.667,58.121 6.719,47.409 7.13,41.534 7.415,39.145 9.508,36.602 11.1,32.614 l -0.97,-0.167 c 1.854,-3.234 10.586,-12.988 14.63,-12.486 1.959,-2.461 -0.389,-0.009 -0.772,-0.629 4.303,-4.453 5.656,-3.146 8.56,-3.947 3.132,-1.859 -2.688,0.725 -1.203,-0.709 5.414,-1.383 3.837,-3.144 10.9,-3.846 0.745,0.424 -1.729,0.655 -2.35,1.205 4.511,-2.207 14.275,-1.705 20.617,1.225 7.359,3.439 15.627,13.605 15.953,23.17 l 0.371,0.1 c -0.188,3.802 0.582,8.199 -0.752,12.238 l 0.908,-1.912"
                   id="path13733-5-1"
                   style="fill:#ffffff" />
                <path
                   ns2:knockout="Off"
                   fill="#a80030"
                   d="m 32.372,59.764 -0.252,1.26 c 1.181,1.604 2.118,3.342 3.626,4.596 -1.085,-2.118 -1.891,-2.993 -3.374,-5.856"
                   id="path13735-0-1"
                   style="fill:#ffffff" />
                <path
                   ns2:knockout="Off"
                   fill="#a80030"
                   d="m 35.164,59.654 c -0.625,-0.691 -0.995,-1.523 -1.409,-2.352 0.396,1.457 1.207,2.709 1.962,3.982 l -0.553,-1.63"
                   id="path13737-2-0"
                   style="fill:#ffffff" />
                <path
                   ns2:knockout="Off"
                   fill="#a80030"
                   d="m 84.568,48.916 -0.264,0.662 c -0.484,3.438 -1.529,6.84 -3.131,9.994 1.77,-3.328 2.915,-6.968 3.395,-10.656"
                   id="path13739-1-1"
                   style="fill:#ffffff" />
                <path
                   ns2:knockout="Off"
                   fill="#a80030"
                   d="M 45.527,0.537 C 46.742,0.092 48.514,0.293 49.803,0 48.123,0.141 46.451,0.225 44.8,0.438 l 0.727,0.099"
                   id="path13741-8-8"
                   style="fill:#ffffff" />
                <path
                   ns2:knockout="Off"
                   fill="#a80030"
                   d="m 2.872,23.219 c 0.28,2.592 -1.95,3.598 0.494,1.889 1.31,-2.951 -0.512,-0.815 -0.494,-1.889"
                   id="path13743-7-7"
                   style="fill:#ffffff" />
                <path
                   ns2:knockout="Off"
                   fill="#a80030"
                   d="M 0,35.215 C 0.563,33.487 0.665,32.449 0.88,31.449 -0.676,33.438 0.164,33.862 0,35.215"
                   id="path13745-1-6"
                   style="fill:#ffffff" />
              </g>
            </g>
          </g>
          <path
             style="color:#000000;fill:#a7c215;fill-opacity:1;stroke-width:0.71257"
             d="m 254.5777,442.18756 c 1.22032,0.065 2.09709,-0.0569 2.67629,-0.34934 0.57921,-0.29243 0.85221,-0.77741 0.82949,-1.3806 -0.0228,-0.60316 -0.32013,-1.32463 -0.83922,-2.15301 -2.07658,-3.31353 -7.74971,-8.36859 -14.40033,-13.66134 -13.30122,-10.58547 -30.50275,-22.07854 -30.50275,-22.07854 l -0.18927,-0.12804 0.0444,0.22408 c 0,0 6.35603,31.44926 37.64098,38.75437 1.9553,0.45656 3.51995,0.70747 4.74027,0.77242 z"
             id="path13753-55-0" />
          <g
             style="overflow:visible"
             id="g13783-8-0"
             transform="matrix(1.3242692,-0.35483684,0.35483684,1.3242692,412.39284,389.46763)">
            <g
               id="g13781-5-9"
               ns2:layer="yes"
               ns2:dimmedPercent="50"
               ns2:rgbTrio="#4F008000FFFF"
               transform="translate(-169.86946,8.7530192)">
              <g
                 id="g13779-6-5">
                <path
                   ns2:knockout="Off"
                   fill="#a80030"
                   d="m 51.986,57.297 c -1.797,0.025 0.34,0.926 2.686,1.287 0.648,-0.506 1.236,-1.018 1.76,-1.516 -1.461,0.358 -2.948,0.366 -4.446,0.229"
                   id="path13755-7-6" />
                <path
                   ns2:knockout="Off"
                   fill="#a80030"
                   d="m 61.631,54.893 c 1.07,-1.477 1.85,-3.094 2.125,-4.766 -0.24,1.192 -0.887,2.221 -1.496,3.307 -3.359,2.115 -0.316,-1.256 -0.002,-2.537 -3.612,4.546 -0.496,2.726 -0.627,3.996"
                   id="path13757-9-2" />
                <path
                   ns2:knockout="Off"
                   fill="#a80030"
                   d="m 65.191,45.629 c 0.217,-3.236 -0.637,-2.213 -0.924,-0.978 0.335,0.174 0.6,2.281 0.924,0.978"
                   id="path13759-4-8" />
                <path
                   ns2:knockout="Off"
                   fill="#a80030"
                   d="m 45.172,1.399 c 0.959,0.172 2.072,0.304 1.916,0.533 1.049,-0.23 1.287,-0.442 -1.916,-0.533"
                   id="path13761-1-5" />
                <path
                   ns2:knockout="Off"
                   fill="#a80030"
                   d="M 47.088,1.932 46.41,2.072 47.041,2.016 47.088,1.932"
                   id="path13763-6-9" />
                <path
                   ns2:knockout="Off"
                   fill="#a80030"
                   d="m 76.992,46.856 c 0.107,2.906 -0.85,4.316 -1.713,6.812 l -1.553,0.776 c -1.271,2.468 0.123,1.567 -0.787,3.53 -1.984,1.764 -6.021,5.52 -7.313,5.863 -0.943,-0.021 0.639,-1.113 0.846,-1.541 -2.656,1.824 -2.131,2.738 -6.193,3.846 L 60.16,65.878 C 50.142,70.591 36.226,61.251 36.409,48.507 c -0.107,0.809 -0.304,0.607 -0.526,0.934 -0.517,-6.557 3.028,-13.143 9.007,-15.832 5.848,-2.895 12.704,-1.707 16.893,2.197 -2.301,-3.014 -6.881,-6.209 -12.309,-5.91 -5.317,0.084 -10.291,3.463 -11.951,7.131 -2.724,1.715 -3.04,6.611 -4.227,7.507 -1.597,11.737 3.004,16.808 10.787,22.773 1.225,0.826 0.345,0.951 0.511,1.58 -2.586,-1.211 -4.954,-3.039 -6.901,-5.277 1.033,1.512 2.148,2.982 3.589,4.137 -2.438,-0.826 -5.695,-5.908 -6.646,-6.115 4.203,7.525 17.052,13.197 23.78,10.383 -3.113,0.115 -7.068,0.064 -10.566,-1.229 -1.469,-0.756 -3.467,-2.322 -3.11,-2.615 9.182,3.43 18.667,2.598 26.612,-3.771 2.021,-1.574 4.229,-4.252 4.867,-4.289 -0.961,1.445 0.164,0.695 -0.574,1.971 2.014,-3.248 -0.875,-1.322 2.082,-5.609 l 1.092,1.504 c -0.406,-2.696 3.348,-5.97 2.967,-10.234 0.861,-1.304 0.961,1.403 0.047,4.403 1.268,-3.328 0.334,-3.863 0.66,-6.609 0.352,0.923 0.814,1.904 1.051,2.878 -0.826,-3.216 0.848,-5.416 1.262,-7.285 -0.408,-0.181 -1.275,1.422 -1.473,-2.377 0.029,-1.65 0.459,-0.865 0.625,-1.271 -0.324,-0.186 -1.174,-1.451 -1.691,-3.877 0.375,-0.57 1.002,1.478 1.512,1.562 -0.328,-1.929 -0.893,-3.4 -0.916,-4.88 -1.49,-3.114 -0.527,0.415 -1.736,-1.337 -1.586,-4.947 1.316,-1.148 1.512,-3.396 2.404,3.483 3.775,8.881 4.404,11.117 -0.48,-2.726 -1.256,-5.367 -2.203,-7.922 0.73,0.307 -1.176,-5.609 0.949,-1.691 C 83.519,18.706 76.074,10.902 69.225,7.24 70.063,8.007 71.121,8.97 70.741,9.121 67.335,7.093 67.934,6.935 67.446,6.078 64.671,4.949 64.489,6.169 62.651,6.08 57.421,3.306 56.413,3.601 51.6,1.863 l 0.219,1.023 c -3.465,-1.154 -4.037,0.438 -7.782,0.004 -0.228,-0.178 1.2,-0.644 2.375,-0.815 -3.35,0.442 -3.193,-0.66 -6.471,0.122 0.808,-0.567 1.662,-0.942 2.524,-1.424 -2.732,0.166 -6.522,1.59 -5.352,0.295 -4.456,1.988 -12.37,4.779 -16.811,8.943 l -0.14,-0.933 c -2.035,2.443 -8.874,7.296 -9.419,10.46 l -0.544,0.127 c -1.059,1.793 -1.744,3.825 -2.584,5.67 -1.385,2.36 -2.03,0.908 -1.833,1.278 -2.724,5.523 -4.077,10.164 -5.246,13.97 0.833,1.245 0.02,7.495 0.335,12.497 -1.368,24.704 17.338,48.69 37.785,54.228 2.997,1.072 7.454,1.031 11.245,1.141 -4.473,-1.279 -5.051,-0.678 -9.408,-2.197 -3.143,-1.48 -3.832,-3.17 -6.058,-5.102 l 0.881,1.557 c -4.366,-1.545 -2.539,-1.912 -6.091,-3.037 l 0.941,-1.229 C 28.751,98.334 26.418,96.056 25.78,94.795 l -1.548,0.061 c -1.86,-2.295 -2.851,-3.949 -2.779,-5.23 l -0.5,0.891 c -0.567,-0.973 -6.843,-8.607 -3.587,-6.83 -0.605,-0.553 -1.409,-0.9 -2.281,-2.484 l 0.663,-0.758 c -1.567,-2.016 -2.884,-4.6 -2.784,-5.461 0.836,1.129 1.416,1.34 1.99,1.533 -3.957,-9.818 -4.179,-0.541 -7.176,-9.994 L 8.412,66.472 C 7.926,65.74 7.631,64.945 7.24,64.165 l 0.276,-2.75 C 4.667,58.121 6.719,47.409 7.13,41.534 7.415,39.145 9.508,36.602 11.1,32.614 l -0.97,-0.167 c 1.854,-3.234 10.586,-12.988 14.63,-12.486 1.959,-2.461 -0.389,-0.009 -0.772,-0.629 4.303,-4.453 5.656,-3.146 8.56,-3.947 3.132,-1.859 -2.688,0.725 -1.203,-0.709 5.414,-1.383 3.837,-3.144 10.9,-3.846 0.745,0.424 -1.729,0.655 -2.35,1.205 4.511,-2.207 14.275,-1.705 20.617,1.225 7.359,3.439 15.627,13.605 15.953,23.17 l 0.371,0.1 c -0.188,3.802 0.582,8.199 -0.752,12.238 l 0.908,-1.912"
                   id="path13765-1-4" />
                <path
                   ns2:knockout="Off"
                   fill="#a80030"
                   d="m 32.372,59.764 -0.252,1.26 c 1.181,1.604 2.118,3.342 3.626,4.596 -1.085,-2.118 -1.891,-2.993 -3.374,-5.856"
                   id="path13767-2-3" />
                <path
                   ns2:knockout="Off"
                   fill="#a80030"
                   d="m 35.164,59.654 c -0.625,-0.691 -0.995,-1.523 -1.409,-2.352 0.396,1.457 1.207,2.709 1.962,3.982 l -0.553,-1.63"
                   id="path13769-04-9" />
                <path
                   ns2:knockout="Off"
                   fill="#a80030"
                   d="m 84.568,48.916 -0.264,0.662 c -0.484,3.438 -1.529,6.84 -3.131,9.994 1.77,-3.328 2.915,-6.968 3.395,-10.656"
                   id="path13771-4-0" />
                <path
                   ns2:knockout="Off"
                   fill="#a80030"
                   d="M 45.527,0.537 C 46.742,0.092 48.514,0.293 49.803,0 48.123,0.141 46.451,0.225 44.8,0.438 l 0.727,0.099"
                   id="path13773-5-5" />
                <path
                   ns2:knockout="Off"
                   fill="#a80030"
                   d="m 2.872,23.219 c 0.28,2.592 -1.95,3.598 0.494,1.889 1.31,-2.951 -0.512,-0.815 -0.494,-1.889"
                   id="path13775-9-6" />
                <path
                   ns2:knockout="Off"
                   fill="#a80030"
                   d="M 0,35.215 C 0.563,33.487 0.665,32.449 0.88,31.449 -0.676,33.438 0.164,33.862 0,35.215"
                   id="path13777-7-3" />
              </g>
            </g>
          </g>
          <path
             style="color:#000000;fill:#ffffff;fill-opacity:1;stroke-width:0.71257"
             d="m 235.32221,424.44893 -0.11404,0.15008 0.001,10e-4 21.90589,16.46169 0.23335,-0.77848 -0.0751,-0.0545 -21.94292,-15.77327 -0.009,-0.005 z"
             id="path13787-5-6"
             sodipodi:nodetypes="ccccccccc" />
        </g>
      </g>
      <g
         aria-label="DEBCONF 23 KOCHI"
         transform="matrix(0.91810101,0.16612815,-0.16612815,0.91810101,650.36133,237.96345)"
         id="text13711"
         style="font-size:9.87778px;line-height:1.25;font-family:Futura;-inkscape-font-specification:'Futura, Normal';letter-spacing:13.2292px;fill:#7a0023;stroke-width:0.841474"
         inkscape:transform-center-x="3.1202047"
         inkscape:transform-center-y="49.579203">
        <path
           d="m -542.54059,-240.31408 7.37485,-1.03351 0.21688,1.54757 q 0.15596,1.11292 0.0266,1.78853 -0.11788,0.72271 -0.55476,1.35863 -0.88128,1.28749 -2.57693,1.52512 -1.70042,0.2383 -2.91791,-0.80378 -0.60908,-0.52343 -0.90618,-1.14902 -0.29106,-0.5826 -0.44837,-1.70507 z m 1.202,0.96632 0.0703,0.50153 q 0.10509,0.74991 0.33233,1.22457 0.23679,0.47332 0.65603,0.82367 0.86503,0.71646 2.0687,0.54778 1.21322,-0.17002 1.85411,-1.08778 0.57106,-0.82518 0.37159,-2.24856 l -0.0703,-0.50153 z"
           id="path15387" />
        <path
           d="m -530.53396,-218.91621 -1.06618,-2.78866 -1.67139,0.63902 1.03517,2.70757 -0.98661,0.37721 -1.03518,-2.70757 -2.32463,0.88877 1.06618,2.78866 -0.98662,0.37721 -1.4675,-3.83834 6.95587,-2.65942 1.4675,3.83834 z"
           id="path15389" />
        <path
           d="m -529.76464,-203.57785 6.20945,-4.11088 0.6177,0.93303 q 0.41268,0.62336 0.56111,1.05725 0.15109,0.43791 0.0923,0.84706 -0.0642,0.4185 -0.31695,0.80562 -0.25409,0.39381 -0.62007,0.63609 -0.66759,0.44198 -1.46822,0.23741 0.15858,0.60649 -0.0747,1.17159 -0.22655,0.56646 -0.78154,0.93388 -0.72793,0.48191 -1.57143,0.29995 -0.51468,-0.10466 -0.89093,-0.41086 -0.39619,-0.34507 -0.81686,-0.98049 z m 4.16344,-1.4086 0.19437,0.29358 q 0.34612,0.52282 0.7351,0.61236 0.39567,0.0909 0.8461,-0.20731 0.43836,-0.29021 0.4985,-0.68865 0.0642,-0.4011 -0.25001,-0.87566 l -0.21833,-0.32978 z m -2.66234,1.76257 0.3834,0.57912 q 0.42067,0.63542 0.86704,0.76795 0.47713,0.1353 0.89136,-0.13893 0.40216,-0.26625 0.47595,-0.74893 0.0751,-0.47197 -0.42546,-1.22804 l -0.31417,-0.47455 z"
           id="path15391" />
        <path
           d="m -509.08898,-189.9721 -0.9177,0.96431 q -0.14383,-1.26211 -0.8985,-1.98031 -0.83154,-0.79136 -1.96961,-0.73588 -1.13824,0.0487 -1.95619,0.90814 -0.80798,0.849 -0.79026,1.97778 0.0177,1.12877 0.84925,1.92012 0.42974,0.40898 0.86321,0.55517 0.23421,0.0897 0.52544,0.14051 0.29474,0.0541 0.65348,0.0759 l -0.93432,0.98177 q -1.0745,-0.27019 -1.84314,-1.00169 -1.15647,-1.10058 -1.20595,-2.68571 -0.0393,-1.58879 1.05458,-2.73827 0.98088,-1.03069 2.43025,-1.18939 1.7795,-0.19076 3.11066,1.07607 0.72672,0.6916 1.0288,1.73145 z"
           id="path15393" />
        <path
           d="m -500.7404,-179.54202 q 0.78,-1.36523 2.34076,-1.77334 1.55658,-0.41051 2.95532,0.38863 1.38198,0.78957 1.80565,2.34256 0.42786,1.55538 -0.36411,2.94155 -0.79674,1.39455 -2.34854,1.79668 -1.55837,0.40393 -2.97386,-0.40478 -1.25216,-0.7154 -1.75359,-2.15173 -0.5493,-1.58588 0.33837,-3.13957 z m 0.97696,0.57483 q -0.61251,1.07209 -0.28699,2.17461 0.32133,1.10014 1.25941,1.63609 1.01764,0.58141 2.11897,0.27742 1.10612,-0.31236 1.68992,-1.33419 0.59098,-1.0344 0.29956,-2.12855 -0.28484,-1.09595 -1.2983,-1.67496 -1.00927,-0.57663 -2.10641,-0.27025 -1.09236,0.298 -1.67616,1.31983 z"
           id="path15395" />
        <path
           d="m -482.2938,-166.87347 2.10081,-7.67088 3.73721,6.91438 1.36699,-4.99142 1.08388,0.29684 -2.0868,7.61971 -3.74103,-6.90043 -1.37718,5.02864 z"
           id="path15397" />
        <path
           d="m -457.16372,-169.31336 -2.59311,-0.0948 -0.0654,1.78818 2.50153,0.0915 -0.0386,1.05556 -2.50153,-0.0915 -0.12955,3.54264 -1.12304,-0.0411 0.27214,-7.44194 3.71615,0.13589 z"
           id="path15399" />
        <path
           d="m -426.04537,-169.46697 2.59003,-0.99144 0.37761,0.98646 -4.67106,1.78805 1.29531,-3.84755 q 0.1886,-0.57314 0.30491,-0.98434 0.12082,-0.41292 0.16418,-0.67741 0.0947,-0.5217 -0.0346,-0.85953 -0.18622,-0.48647 -0.65443,-0.68425 -0.4682,-0.19778 -0.97269,-0.005 -1.05403,0.40347 -0.72956,1.70981 l -1.04502,0.40003 q -0.58919,-2.2947 1.37923,-3.0482 0.95043,-0.36382 1.8256,-0.007 0.87969,0.3553 1.22109,1.24717 0.21725,0.56755 0.12409,1.22811 -0.0445,0.3424 -0.1918,0.84809 -0.1445,0.49945 -0.39147,1.20339 z"
           id="path15401" />
        <path
           d="m -410.33724,-180.15278 -0.5337,-0.79774 q 0.5933,-0.39692 0.70924,-0.66598 0.20925,-0.47656 -0.13403,-0.98968 -0.26551,-0.39687 -0.69636,-0.46841 -0.42953,-0.0782 -0.84644,0.20069 -0.38885,0.26014 -0.47527,0.59069 -0.0757,0.3292 0.1298,0.85324 l -0.93003,0.6222 q -0.44033,-0.97046 -0.26222,-1.67571 0.17542,-0.70927 0.98118,-1.24832 0.81378,-0.54443 1.64873,-0.40666 0.83226,0.13376 1.33646,0.88741 0.56856,0.84985 0.21155,1.77344 1.07273,-0.0619 1.75393,0.9563 0.55783,0.83382 0.35062,1.73844 -0.20722,0.90462 -1.08514,1.49195 -1.11844,0.74824 -2.20941,0.2885 -0.45513,-0.19456 -0.92291,-0.76367 l 0.90197,-0.60342 q 0.37253,0.40071 0.81005,0.45618 0.43884,0.0488 0.88782,-0.25158 0.45299,-0.30306 0.5485,-0.80217 0.0901,-0.50714 -0.22632,-0.98017 -0.41838,-0.62537 -1.04035,-0.59225 -0.36248,0.022 -0.90767,0.38672 z"
           id="path15403" />
        <path
           d="m -387.54966,-204.32358 -0.93239,-4.04479 0.81092,-1.2619 1.01624,4.65479 5.25908,-0.64513 -0.81353,1.26597 -4.23729,0.46469 0.0696,0.31992 2.59279,1.66616 -0.60754,0.94541 -6.26488,-4.02589 0.60753,-0.94542 z"
           id="path15405" />
        <path
           d="m -378.99642,-218.89778 q -1.48616,-0.51342 -2.17651,-1.97149 -0.69192,-1.45351 -0.16591,-2.97614 0.51972,-1.50439 1.96727,-2.20858 1.44912,-0.70875 2.95807,-0.18746 1.51806,0.52444 2.20087,1.9748 0.68579,1.4565 0.15348,2.99736 -0.4709,1.36307 -1.78939,2.12205 -1.45658,0.83375 -3.14788,0.24946 z m 0.38378,-1.06659 q 1.16704,0.40318 2.19012,-0.12107 1.0215,-0.51969 1.37428,-1.54085 0.3827,-1.10778 -0.12016,-2.13368 -0.51199,-1.02905 -1.62432,-1.41332 -1.12602,-0.389 -2.14719,0.10019 -1.02416,0.48305 -1.40528,1.58627 -0.37955,1.09866 0.12489,2.12 0.49532,1.01819 1.60766,1.40246 z"
           id="path15407" />
        <path
           d="m -376.51559,-245.47732 1.32598,0.11762 q -0.89801,0.89844 -0.99007,1.93616 -0.10143,1.14342 0.65063,1.99939 0.74683,0.86035 1.92868,0.9652 1.16744,0.10356 2.03965,-0.61317 0.8722,-0.71673 0.97363,-1.86014 0.0524,-0.59093 -0.10309,-1.02114 -0.0756,-0.23913 -0.21724,-0.49864 -0.14119,-0.26431 -0.3475,-0.55861 l 1.35,0.11976 q 0.45765,1.00901 0.36389,2.06595 -0.14107,1.59021 -1.35058,2.61596 -1.2187,1.0201 -2.7993,0.87988 -1.41726,-0.12572 -2.44394,-1.161 -1.25733,-1.27364 -1.09495,-3.10407 0.0887,-0.99928 0.71421,-1.88315 z"
           id="path15409" />
        <path
           d="m -374.59769,-260.15208 -0.46378,-3.17855 -2.88265,0.4206 -0.16225,-1.11202 7.3689,-1.07517 0.16225,1.11201 -3.44105,0.50208 0.46377,3.17855 3.44105,-0.50207 0.16225,1.11201 -7.36889,1.07517 -0.16226,-1.11201 z"
           id="path15411" />
        <path
           d="m -382.04919,-278.02463 6.97876,-2.59874 0.39217,1.05314 -6.97877,2.59874 z"
           id="path15413" />
      </g>
    </g>
  </g>
</svg>
