<?xml version="1.0" encoding="UTF-8" standalone="no"?>
<svg
   width="2000"
   height="1310"
   viewBox="0 0 529.16661 346.60417"
   version="1.1"
   id="svg3526"
   sodipodi:docname="tshirt-alt.svg"
   inkscape:version="1.1.2 (0a00cf5339, 2022-02-04)"
   xmlns:inkscape="http://www.inkscape.org/namespaces/inkscape"
   xmlns:sodipodi="http://sodipodi.sourceforge.net/DTD/sodipodi-0.dtd"
   xmlns:xlink="http://www.w3.org/1999/xlink"
   xmlns="http://www.w3.org/2000/svg"
   xmlns:svg="http://www.w3.org/2000/svg"
   xmlns:rdf="http://www.w3.org/1999/02/22-rdf-syntax-ns#"
   xmlns:cc="http://creativecommons.org/ns#"
   xmlns:dc="http://purl.org/dc/elements/1.1/"
   xmlns:i="http://ns.adobe.com/AdobeIllustrator/10.0/">
  <defs
     id="defs3520">
    <rect
       x="1066.2903"
       y="1591.8424"
       width="411.64722"
       height="15.923607"
       id="rect51596" />
    <rect
       x="592.27112"
       y="2052.2993"
       width="375.38165"
       height="17.023815"
       id="rect17087" />
    <rect
       x="623.40234"
       y="2081.7073"
       width="383.20758"
       height="19.258024"
       id="rect17081" />
    <rect
       x="698.80658"
       y="2642.3879"
       width="602.13885"
       height="81.76194"
       id="rect61312" />
    <rect
       x="724.39325"
       y="2650.897"
       width="669.39154"
       height="173.675"
       id="rect61306" />
    <rect
       x="-114.89914"
       y="2136.4131"
       width="396.35031"
       height="140.7516"
       id="rect16870" />
    <rect
       x="215.66898"
       y="1914.0203"
       width="78.206345"
       height="41.908646"
       id="rect16856" />
    <rect
       x="1395.3574"
       y="1542.8477"
       width="54.146763"
       height="15.010543"
       id="rect13816" />
    <rect
       x="1312.7544"
       y="1667.0475"
       width="27.104568"
       height="15.677483"
       id="rect13810" />
    <rect
       x="1309.71"
       y="1632.0681"
       width="46.80175"
       height="21.805733"
       id="rect13804" />
    <rect
       x="1295.4402"
       y="1603.1639"
       width="51.783176"
       height="21.141844"
       id="rect13798" />
    <rect
       x="1300.7655"
       y="1576.1123"
       width="41.015144"
       height="20.659765"
       id="rect13792" />
    <rect
       x="1297.8744"
       y="1553.3317"
       width="42.647449"
       height="14.115866"
       id="rect13786" />
    <rect
       x="1299.9824"
       y="1528.6351"
       width="33.895084"
       height="17.351845"
       id="rect13780" />
    <rect
       x="1290.73"
       y="1502.3629"
       width="53.311108"
       height="16.161861"
       id="rect13774" />
    <rect
       x="1291.7202"
       y="1475.1827"
       width="168.13416"
       height="87.251221"
       id="rect13768" />
    <rect
       x="980.20038"
       y="1409.3207"
       width="206.68919"
       height="476.82803"
       id="rect13762" />
    <rect
       x="510.02377"
       y="1688.4919"
       width="131.90086"
       height="59.621685"
       id="rect14445" />
    <rect
       x="341.20978"
       y="1761.5496"
       width="313.36588"
       height="49.599686"
       id="rect14439" />
    <rect
       x="347.87927"
       y="1724.4619"
       width="218.10361"
       height="58.533249"
       id="rect14431" />
    <rect
       x="245.60516"
       y="1843.3629"
       width="1251.2028"
       height="1167.0219"
       id="rect14377" />
    <rect
       x="24.725634"
       y="285.69922"
       width="78.727242"
       height="32.777397"
       id="rect10851" />
    <rect
       x="152.45316"
       y="325.76215"
       width="111.0417"
       height="14.012665"
       id="rect10789" />
    <inkscape:perspective
       sodipodi:type="inkscape:persp3d"
       inkscape:vp_x="-41.181732 : 94.116209 : 1"
       inkscape:vp_y="0 : 999.99998 : 0"
       inkscape:vp_z="-1046.0476 : 247.71626 : 1"
       inkscape:persp3d-origin="104.99999 : 148.60416 : 1"
       id="perspective10693" />
    <rect
       x="152.45316"
       y="325.76215"
       width="111.0417"
       height="14.012665"
       id="rect10797" />
    <rect
       x="24.725634"
       y="285.69922"
       width="78.727242"
       height="32.777397"
       id="rect10859" />
    <rect
       x="24.725634"
       y="285.69922"
       width="78.727242"
       height="32.777397"
       id="rect10865" />
    <rect
       x="24.725634"
       y="285.69922"
       width="78.727242"
       height="32.777397"
       id="rect10859-1" />
    <rect
       x="24.725634"
       y="285.69922"
       width="78.727242"
       height="32.777397"
       id="rect10878" />
    <rect
       x="24.725634"
       y="285.69922"
       width="78.727242"
       height="32.777397"
       id="rect11449" />
    <rect
       x="24.725634"
       y="285.69922"
       width="78.727242"
       height="32.777397"
       id="rect11467" />
    <rect
       x="24.725634"
       y="285.69922"
       width="78.727242"
       height="32.777397"
       id="rect3156" />
    <rect
       x="24.725634"
       y="285.69922"
       width="78.727242"
       height="32.777397"
       id="rect3158" />
    <rect
       x="24.725634"
       y="285.69922"
       width="78.727242"
       height="32.777397"
       id="rect4504" />
    <rect
       x="24.725634"
       y="285.69922"
       width="78.727242"
       height="32.777397"
       id="rect4506" />
    <rect
       x="24.725634"
       y="285.69922"
       width="78.727242"
       height="32.777397"
       id="rect5855" />
    <rect
       x="24.725634"
       y="285.69922"
       width="78.727242"
       height="32.777397"
       id="rect5857" />
    <rect
       x="24.725634"
       y="285.69922"
       width="78.727242"
       height="32.777397"
       id="rect6819" />
    <rect
       x="24.725634"
       y="285.69922"
       width="78.727242"
       height="32.777397"
       id="rect6821" />
    <rect
       x="24.725634"
       y="285.69922"
       width="78.727242"
       height="32.777397"
       id="rect11678" />
    <rect
       x="24.725634"
       y="285.69922"
       width="78.727242"
       height="32.777397"
       id="rect11680" />
    <rect
       x="24.725634"
       y="285.69922"
       width="78.727242"
       height="32.777397"
       id="rect11682" />
    <rect
       x="24.725634"
       y="285.69922"
       width="78.727242"
       height="32.777397"
       id="rect11684" />
    <rect
       x="24.725634"
       y="285.69922"
       width="78.727242"
       height="32.777397"
       id="rect11686" />
    <rect
       x="24.725634"
       y="285.69922"
       width="78.727242"
       height="32.777397"
       id="rect11688" />
    <rect
       x="24.725634"
       y="285.69922"
       width="78.727242"
       height="32.777397"
       id="rect11690" />
    <rect
       x="24.725634"
       y="285.69922"
       width="78.727242"
       height="32.777397"
       id="rect11692" />
    <rect
       x="24.725634"
       y="285.69922"
       width="78.727242"
       height="32.777397"
       id="rect11694" />
    <rect
       x="24.725634"
       y="285.69922"
       width="78.727242"
       height="32.777397"
       id="rect11696" />
    <rect
       x="24.725634"
       y="285.69922"
       width="78.727242"
       height="32.777397"
       id="rect17634" />
    <rect
       x="24.725634"
       y="285.69922"
       width="78.727242"
       height="32.777397"
       id="rect17636" />
    <rect
       x="24.725634"
       y="285.69922"
       width="78.727242"
       height="32.777397"
       id="rect19568" />
    <rect
       x="24.725634"
       y="285.69922"
       width="78.727242"
       height="32.777397"
       id="rect19570" />
    <rect
       x="1297.8744"
       y="1553.3317"
       width="42.647449"
       height="14.115866"
       id="rect13928" />
    <rect
       x="1309.71"
       y="1632.0681"
       width="46.80175"
       height="21.805733"
       id="rect13930" />
    <rect
       x="1291.7202"
       y="1475.1827"
       width="168.13416"
       height="87.251221"
       id="rect13932" />
    <rect
       x="1295.4402"
       y="1603.1639"
       width="51.783176"
       height="21.141844"
       id="rect13934" />
    <rect
       x="1290.73"
       y="1502.3629"
       width="53.311108"
       height="16.161861"
       id="rect13936" />
    <rect
       x="1299.9824"
       y="1528.6351"
       width="33.895084"
       height="17.351845"
       id="rect13938" />
    <rect
       x="1300.7655"
       y="1576.1123"
       width="41.015144"
       height="20.659765"
       id="rect13940" />
    <rect
       x="1312.7544"
       y="1667.0475"
       width="27.104568"
       height="15.677483"
       id="rect13942" />
    <rect
       x="1395.3574"
       y="1542.8477"
       width="64.613396"
       height="21.698626"
       id="rect13944" />
    <rect
       x="215.66898"
       y="1914.0203"
       width="78.206345"
       height="41.908646"
       id="rect43223" />
    <rect
       x="1297.8744"
       y="1553.3317"
       width="58.627178"
       height="15.535524"
       id="rect16951" />
    <rect
       x="1309.71"
       y="1632.0681"
       width="46.80175"
       height="21.805733"
       id="rect16953" />
    <rect
       x="1291.7202"
       y="1475.1827"
       width="168.13416"
       height="87.251221"
       id="rect16955" />
    <rect
       x="1295.4402"
       y="1603.1639"
       width="51.783176"
       height="21.141844"
       id="rect16957" />
    <rect
       x="1290.73"
       y="1502.3629"
       width="53.311108"
       height="16.161861"
       id="rect16959" />
    <rect
       x="1299.9824"
       y="1528.6351"
       width="33.895084"
       height="17.351845"
       id="rect16961" />
    <rect
       x="1300.7655"
       y="1576.1123"
       width="41.015144"
       height="20.659765"
       id="rect16963" />
    <rect
       x="1312.7544"
       y="1667.0475"
       width="27.104568"
       height="15.677483"
       id="rect16965" />
    <rect
       x="1395.3574"
       y="1542.8477"
       width="64.613396"
       height="21.698626"
       id="rect16967" />
    <rect
       x="24.725634"
       y="285.69922"
       width="78.727242"
       height="32.777397"
       id="rect11690-3" />
    <rect
       x="24.725634"
       y="285.69922"
       width="78.727242"
       height="32.777397"
       id="rect17285" />
    <rect
       x="24.725634"
       y="285.69922"
       width="78.727242"
       height="32.777397"
       id="rect11692-3" />
    <rect
       x="24.725634"
       y="285.69922"
       width="78.727242"
       height="32.777397"
       id="rect17300" />
    <rect
       x="1297.8744"
       y="1553.3317"
       width="42.647449"
       height="14.115866"
       id="rect13928-7" />
    <rect
       x="1297.8744"
       y="1553.3317"
       width="42.647449"
       height="14.115866"
       id="rect17303" />
    <rect
       x="1309.71"
       y="1632.0681"
       width="46.80175"
       height="21.805733"
       id="rect13930-5" />
    <rect
       x="1309.71"
       y="1632.0681"
       width="46.80175"
       height="21.805733"
       id="rect17306" />
    <rect
       x="1291.7202"
       y="1475.1827"
       width="168.13416"
       height="87.251221"
       id="rect13932-9" />
    <rect
       x="1291.7202"
       y="1475.1827"
       width="168.13416"
       height="87.251221"
       id="rect17309" />
    <rect
       x="1295.4402"
       y="1603.1639"
       width="51.783176"
       height="21.141844"
       id="rect13934-2" />
    <rect
       x="1295.4402"
       y="1603.1639"
       width="51.783176"
       height="21.141844"
       id="rect17312" />
    <rect
       x="1290.73"
       y="1502.3629"
       width="53.311108"
       height="16.161861"
       id="rect13936-2" />
    <rect
       x="1290.73"
       y="1502.3629"
       width="53.311108"
       height="16.161861"
       id="rect17315" />
    <rect
       x="1299.9824"
       y="1528.6351"
       width="33.895084"
       height="17.351845"
       id="rect13938-8" />
    <rect
       x="1299.9824"
       y="1528.6351"
       width="33.895084"
       height="17.351845"
       id="rect17318" />
    <rect
       x="1300.7655"
       y="1576.1123"
       width="41.015144"
       height="20.659765"
       id="rect13940-9" />
    <rect
       x="1300.7655"
       y="1576.1123"
       width="41.015144"
       height="20.659765"
       id="rect17321" />
    <rect
       x="1312.7544"
       y="1667.0475"
       width="27.104568"
       height="15.677483"
       id="rect13942-7" />
    <rect
       x="1312.7544"
       y="1667.0475"
       width="27.104568"
       height="15.677483"
       id="rect17324" />
    <rect
       x="1395.3574"
       y="1542.8477"
       width="64.613396"
       height="21.698626"
       id="rect13944-3" />
    <rect
       x="1395.3574"
       y="1542.8477"
       width="64.613396"
       height="21.698626"
       id="rect17327" />
    <rect
       x="215.66898"
       y="1914.0203"
       width="78.206345"
       height="41.908646"
       id="rect43223-3" />
    <rect
       x="215.66898"
       y="1914.0203"
       width="78.206345"
       height="41.908646"
       id="rect17348" />
    <rect
       x="698.80658"
       y="2642.3879"
       width="602.13885"
       height="81.76194"
       id="rect61312-2" />
    <rect
       x="698.80658"
       y="2642.3879"
       width="602.13885"
       height="81.76194"
       id="rect17351" />
    <rect
       x="24.725634"
       y="285.69922"
       width="78.727242"
       height="32.777397"
       id="rect33657" />
    <rect
       x="24.725634"
       y="285.69922"
       width="78.727242"
       height="32.777397"
       id="rect33659" />
    <rect
       x="215.66898"
       y="1914.0203"
       width="78.206345"
       height="41.908646"
       id="rect33661" />
    <rect
       x="698.80658"
       y="2642.3879"
       width="602.13885"
       height="81.76194"
       id="rect33663" />
    <rect
       x="215.66898"
       y="1914.0203"
       width="78.206345"
       height="41.908646"
       id="rect39938" />
    <rect
       x="698.80658"
       y="2642.3879"
       width="602.13885"
       height="81.76194"
       id="rect39940" />
    <rect
       x="24.725634"
       y="285.69922"
       width="78.727242"
       height="32.777397"
       id="rect50647" />
    <rect
       x="24.725634"
       y="285.69922"
       width="78.727242"
       height="32.777397"
       id="rect50649" />
    <rect
       x="24.725634"
       y="285.69922"
       width="78.727242"
       height="32.777397"
       id="rect70911" />
    <rect
       x="215.66898"
       y="1914.0203"
       width="78.206345"
       height="41.908646"
       id="rect70913" />
    <rect
       x="698.80658"
       y="2642.3879"
       width="602.13885"
       height="81.76194"
       id="rect70915" />
    <rect
       x="24.725634"
       y="285.69922"
       width="78.727242"
       height="32.777397"
       id="rect70917" />
    <rect
       x="24.725634"
       y="285.69922"
       width="78.727242"
       height="32.777397"
       id="rect31460" />
    <rect
       x="215.66898"
       y="1914.0203"
       width="78.206345"
       height="41.908646"
       id="rect31462" />
    <rect
       x="698.80658"
       y="2642.3879"
       width="602.13885"
       height="81.76194"
       id="rect31464" />
    <rect
       x="24.725634"
       y="285.69922"
       width="78.727242"
       height="32.777397"
       id="rect31466" />
    <rect
       x="24.725634"
       y="285.69922"
       width="78.727242"
       height="32.777397"
       id="rect50241" />
    <rect
       x="215.66898"
       y="1914.0203"
       width="78.206345"
       height="41.908646"
       id="rect50243" />
    <rect
       x="698.80658"
       y="2642.3879"
       width="602.13885"
       height="81.76194"
       id="rect50245" />
    <rect
       x="24.725634"
       y="285.69922"
       width="78.727242"
       height="32.777397"
       id="rect50247" />
    <rect
       x="24.725634"
       y="285.69922"
       width="78.727242"
       height="32.777397"
       id="rect37610" />
    <rect
       x="215.66898"
       y="1914.0203"
       width="78.206345"
       height="41.908646"
       id="rect37612" />
    <rect
       x="698.80658"
       y="2642.3879"
       width="602.13885"
       height="81.76194"
       id="rect37614" />
    <rect
       x="24.725634"
       y="285.69922"
       width="78.727242"
       height="32.777397"
       id="rect37616" />
    <rect
       x="24.725634"
       y="285.69922"
       width="78.727242"
       height="32.777397"
       id="rect39894" />
    <rect
       x="215.66898"
       y="1914.0203"
       width="78.206345"
       height="41.908646"
       id="rect39896" />
    <rect
       x="698.80658"
       y="2642.3879"
       width="602.13885"
       height="81.76194"
       id="rect39898" />
    <rect
       x="24.725634"
       y="285.69922"
       width="78.727242"
       height="32.777397"
       id="rect39900" />
    <rect
       x="215.66898"
       y="1914.0203"
       width="78.206345"
       height="41.908646"
       id="rect39924" />
    <rect
       x="698.80658"
       y="2642.3879"
       width="602.13885"
       height="81.76194"
       id="rect39932" />
    <rect
       x="215.66898"
       y="1914.0203"
       width="78.206345"
       height="41.908646"
       id="rect39956" />
    <rect
       x="698.80658"
       y="2642.3879"
       width="602.13885"
       height="81.76194"
       id="rect39964" />
    <rect
       x="24.725634"
       y="285.69922"
       width="78.727242"
       height="32.777397"
       id="rect39972" />
    <rect
       x="24.725634"
       y="285.69922"
       width="78.727242"
       height="32.777397"
       id="rect39980" />
    <rect
       x="24.725634"
       y="285.69922"
       width="78.727242"
       height="32.777397"
       id="rect39988" />
    <rect
       x="24.725634"
       y="285.69922"
       width="78.727242"
       height="32.777397"
       id="rect40296" />
    <rect
       x="24.725634"
       y="285.69922"
       width="78.727242"
       height="32.777397"
       id="rect40304" />
    <rect
       x="24.725634"
       y="285.69922"
       width="78.727242"
       height="32.777397"
       id="rect40312" />
    <rect
       x="24.725634"
       y="285.69922"
       width="78.727242"
       height="32.777397"
       id="rect46902" />
    <rect
       x="215.66898"
       y="1914.0203"
       width="78.206345"
       height="41.908646"
       id="rect46904" />
    <rect
       x="698.80658"
       y="2642.3879"
       width="602.13885"
       height="81.76194"
       id="rect46906" />
    <rect
       x="24.725634"
       y="285.69922"
       width="78.727242"
       height="32.777397"
       id="rect46908" />
    <rect
       x="1066.2903"
       y="1591.8424"
       width="411.64722"
       height="15.923607"
       id="rect51604" />
    <rect
       x="1066.2903"
       y="1591.8424"
       width="411.64722"
       height="15.923607"
       id="rect52239" />
    <rect
       x="1066.2903"
       y="1591.8424"
       width="411.64722"
       height="15.923607"
       id="rect52248" />
    <filter
       inkscape:collect="always"
       style="color-interpolation-filters:sRGB"
       id="filter8473-6-1"
       x="-2.1251607e-06"
       width="1.0000043"
       y="-2.1493611e-06"
       height="1.0000043">
      <feGaussianBlur
         inkscape:collect="always"
         stdDeviation="0.00017087798"
         id="feGaussianBlur8475-1-4" />
    </filter>
    <filter
       inkscape:collect="always"
       style="color-interpolation-filters:sRGB"
       id="filter8469-2-8"
       x="-0.0060045117"
       width="1.0119053"
       y="-0.0052497988"
       height="1.0105586">
      <feGaussianBlur
         inkscape:collect="always"
         stdDeviation="0.00017087798"
         id="feGaussianBlur8471-9-8" />
    </filter>
    <filter
       inkscape:collect="always"
       style="color-interpolation-filters:sRGB"
       id="filter8465-3-4"
       x="-0.049345986"
       width="1.1010944"
       y="-0.00049509971"
       height="1.0032352">
      <feGaussianBlur
         inkscape:collect="always"
         stdDeviation="0.00017087798"
         id="feGaussianBlur8467-1-5" />
    </filter>
    <filter
       inkscape:collect="always"
       style="color-interpolation-filters:sRGB"
       id="filter8461-9-7"
       x="-0.04350729"
       width="1.0847212"
       y="-0.00014350176"
       height="1.0032165">
      <feGaussianBlur
         inkscape:collect="always"
         stdDeviation="0.00017087798"
         id="feGaussianBlur8463-4-9" />
    </filter>
    <filter
       inkscape:collect="always"
       style="color-interpolation-filters:sRGB"
       id="filter8457-7-8"
       x="-0.0095800002"
       width="1.0189819"
       y="-0.03077178"
       height="1.0396121">
      <feGaussianBlur
         inkscape:collect="always"
         stdDeviation="0.00017087798"
         id="feGaussianBlur8459-8-4" />
    </filter>
    <filter
       inkscape:collect="always"
       style="color-interpolation-filters:sRGB"
       id="filter8453-4-5"
       x="-0.010857256"
       width="1.0215116"
       y="-0.03516201"
       height="1.0452621">
      <feGaussianBlur
         inkscape:collect="always"
         stdDeviation="0.00017087798"
         id="feGaussianBlur8455-5-8" />
    </filter>
    <filter
       inkscape:collect="always"
       style="color-interpolation-filters:sRGB"
       id="filter8449-0-8"
       x="-0.0019145823"
       width="1.0132001"
       y="-0.040294358"
       height="1.0672559">
      <feGaussianBlur
         inkscape:collect="always"
         stdDeviation="0.00017087798"
         id="feGaussianBlur8451-3-9" />
    </filter>
    <filter
       inkscape:collect="always"
       style="color-interpolation-filters:sRGB"
       id="filter8445-6-4"
       x="-0.015104508"
       width="1.0162677"
       y="-0.035029781"
       height="1.0459495">
      <feGaussianBlur
         inkscape:collect="always"
         stdDeviation="0.00017087798"
         id="feGaussianBlur8447-1-7" />
    </filter>
    <rect
       x="215.66898"
       y="1914.0203"
       width="78.206345"
       height="41.908646"
       id="rect39896-0" />
    <rect
       x="698.80658"
       y="2642.3879"
       width="602.13885"
       height="81.76194"
       id="rect39898-6" />
    <rect
       x="215.66898"
       y="1914.0203"
       width="78.206345"
       height="41.908646"
       id="rect39924-5" />
    <rect
       x="698.80658"
       y="2642.3879"
       width="602.13885"
       height="81.76194"
       id="rect39932-3" />
    <rect
       x="215.66898"
       y="1914.0203"
       width="78.206345"
       height="41.908646"
       id="rect39956-8" />
    <rect
       x="698.80658"
       y="2642.3879"
       width="602.13885"
       height="81.76194"
       id="rect39964-5" />
    <filter
       inkscape:collect="always"
       style="color-interpolation-filters:sRGB"
       id="filter8437-6-1"
       x="-2.1251497e-06"
       width="1.0000043"
       y="-2.1493611e-06"
       height="1.0000043">
      <feGaussianBlur
         inkscape:collect="always"
         stdDeviation="0.00017087798"
         id="feGaussianBlur8439-0-2" />
    </filter>
    <filter
       inkscape:collect="always"
       style="color-interpolation-filters:sRGB"
       id="filter8433-6-4"
       x="-0.0060045264"
       width="1.0119054"
       y="-0.0052497232"
       height="1.0105593">
      <feGaussianBlur
         inkscape:collect="always"
         stdDeviation="0.00017087798"
         id="feGaussianBlur8435-2-6" />
    </filter>
    <filter
       inkscape:collect="always"
       style="color-interpolation-filters:sRGB"
       id="filter8429-6-7"
       x="-0.049345869"
       width="1.1010942"
       y="-0.00049510792"
       height="1.0032354">
      <feGaussianBlur
         inkscape:collect="always"
         stdDeviation="0.00017087798"
         id="feGaussianBlur8431-1-5" />
    </filter>
    <filter
       inkscape:collect="always"
       style="color-interpolation-filters:sRGB"
       id="filter8425-8-5"
       x="-0.043510635"
       width="1.0847277"
       y="-0.0001440072"
       height="1.0032171">
      <feGaussianBlur
         inkscape:collect="always"
         stdDeviation="0.00017087798"
         id="feGaussianBlur8427-7-0" />
    </filter>
    <filter
       inkscape:collect="always"
       style="color-interpolation-filters:sRGB"
       id="filter8421-9-5"
       x="-0.0019146684"
       width="1.0131999"
       y="-0.040294198"
       height="1.0672567">
      <feGaussianBlur
         inkscape:collect="always"
         stdDeviation="0.00017087798"
         id="feGaussianBlur8423-2-2" />
    </filter>
    <filter
       inkscape:collect="always"
       style="color-interpolation-filters:sRGB"
       id="filter8417-0-0"
       x="-0.015104508"
       width="1.0162677"
       y="-0.035029781"
       height="1.0459495">
      <feGaussianBlur
         inkscape:collect="always"
         stdDeviation="0.00017087798"
         id="feGaussianBlur8419-2-7" />
    </filter>
    <rect
       x="24.725634"
       y="285.69922"
       width="78.727242"
       height="32.777397"
       id="rect39900-7" />
    <rect
       x="24.725634"
       y="285.69922"
       width="78.727242"
       height="32.777397"
       id="rect39972-9" />
    <rect
       x="24.725634"
       y="285.69922"
       width="78.727242"
       height="32.777397"
       id="rect39980-7" />
    <rect
       x="24.725634"
       y="285.69922"
       width="78.727242"
       height="32.777397"
       id="rect39988-5" />
    <rect
       x="24.725634"
       y="285.69922"
       width="78.727242"
       height="32.777397"
       id="rect39894-3" />
    <rect
       x="24.725634"
       y="285.69922"
       width="78.727242"
       height="32.777397"
       id="rect40296-9" />
    <rect
       x="24.725634"
       y="285.69922"
       width="78.727242"
       height="32.777397"
       id="rect40304-9" />
    <rect
       x="24.725634"
       y="285.69922"
       width="78.727242"
       height="32.777397"
       id="rect40312-4" />
    <linearGradient
       inkscape:collect="always"
       id="linearGradient6314">
      <stop
         style="stop-color:#ffa722;stop-opacity:1;"
         offset="0"
         id="stop6310" />
      <stop
         style="stop-color:#ffc927;stop-opacity:1;"
         offset="1"
         id="stop6312" />
    </linearGradient>
    <linearGradient
       inkscape:collect="always"
       xlink:href="#linearGradient6314"
       id="linearGradient4003"
       gradientUnits="userSpaceOnUse"
       gradientTransform="matrix(1.8369995,0,0,1.8369995,-597.86984,-147.98339)"
       x1="437.82001"
       y1="362.86563"
       x2="498.4632"
       y2="362.86563" />
  </defs>
  <sodipodi:namedview
     id="base"
     pagecolor="#ffffff"
     bordercolor="#666666"
     borderopacity="1.0"
     inkscape:pageopacity="0.0"
     inkscape:pageshadow="2"
     inkscape:zoom="0.25408704"
     inkscape:cx="371.91979"
     inkscape:cy="684.8047"
     inkscape:document-units="mm"
     inkscape:current-layer="g5215"
     inkscape:document-rotation="0"
     showgrid="false"
     inkscape:window-width="1920"
     inkscape:window-height="1011"
     inkscape:window-x="0"
     inkscape:window-y="0"
     inkscape:window-maximized="1"
     inkscape:snap-global="false"
     inkscape:snap-bbox="true"
     showguides="false"
     units="px"
     inkscape:showpageshadow="2"
     inkscape:pagecheckerboard="0"
     inkscape:deskcolor="#d1d1d1">
    <inkscape:grid
       type="xygrid"
       id="grid10847"
       originx="0"
       originy="0" />
  </sodipodi:namedview>
  <metadata
     id="metadata3523">
    <rdf:RDF>
      <cc:Work
         rdf:about="">
        <dc:format>image/svg+xml</dc:format>
        <dc:type
           rdf:resource="http://purl.org/dc/dcmitype/StillImage" />
      </cc:Work>
    </rdf:RDF>
  </metadata>
  <g
     inkscape:label="Layer 1"
     inkscape:groupmode="layer"
     id="layer1">
    <g
       inkscape:label="Layer 1"
       id="layer1-27"
       transform="translate(238.95457,194.45249)" />
    <text
       xml:space="preserve"
       id="text16868"
       style="font-weight:bold;font-size:10.5833px;line-height:1.25;font-family:sans-serif;-inkscape-font-specification:'sans-serif Bold';white-space:pre;shape-inside:url(#rect16870);display:inline" />
    <text
       xml:space="preserve"
       id="text61304"
       style="font-weight:bold;font-size:10.5833px;line-height:1.25;font-family:sans-serif;-inkscape-font-specification:'sans-serif Bold';white-space:pre;shape-inside:url(#rect61306);display:inline" />
    <text
       xml:space="preserve"
       id="text17079"
       style="font-weight:bold;font-size:10.5833px;line-height:1.25;font-family:sans-serif;-inkscape-font-specification:'sans-serif Bold';white-space:pre;shape-inside:url(#rect17081);display:inline" />
    <g
       id="g5215"
       inkscape:export-filename="/home/avronr/Sources/debconf23-artwork/g5215.png"
       inkscape:export-xdpi="96"
       inkscape:export-ydpi="96">
      <ellipse
         id="path9717"
         style="fill:#000000;stroke:none;stroke-width:0.372618"
         cx="264.58334"
         cy="173.30206"
         rx="0.53182662"
         ry="0.58741105"
         inkscape:export-filename="/home/avronr/Sources/debconf23-artwork/path9717.png"
         inkscape:export-xdpi="96"
         inkscape:export-ydpi="96" />
      <g
         id="g50424"
         style="fill:#4d4d4d;fill-opacity:1"
         transform="matrix(1.3400356,0,0,1.480091,-173.54048,-666.83154)"
         inkscape:export-filename="/home/avronr/Sources/debconf23-artwork/path9717.png"
         inkscape:export-xdpi="96"
         inkscape:export-ydpi="96">
        <g
           id="g31126-9"
           transform="matrix(0.94083211,0,0,-0.94083211,287.6416,560.74198)"
           style="fill:#4d4d4d;fill-opacity:1;filter:url(#filter8473-6-1)"
           inkscape:export-filename="/home/avronr/Documents/MiniDebconf/tshirt/finaldraft6.png"
           inkscape:export-xdpi="131.41048"
           inkscape:export-ydpi="131.41048">
          <path
             d="m 0,0 c -1.838,1.839 -2.089,12.554 -5.974,13.693 -3.859,-6.616 0.919,-99.337 -0.551,-103.105 -1.103,-8.821 -53.758,-19.757 -103.381,-5.687 -2.186,0.762 -6.177,1.655 -7.288,3.656 2.143,8.005 5.083,82.255 1.058,101.608 -1.878,-2.77 -3.302,-6.083 -5.624,-8.602 0,0 -20.401,-1.653 -34.46,13.233 0,0 9.373,24.536 12.681,31.428 1.53,4.954 3.761,9.861 6.529,14.239 5.03,7.95 11.851,11.191 20.764,13.39 24.536,6.28 27.439,11.792 34.736,14.826 2.481,-3.584 11.838,-6.046 17.919,-6.616 14.06,-1.378 26.219,7.077 26.466,6.892 2.205,-1.654 6.07,-4.324 8.545,-5.514 10.415,-5.004 22.42,-5.402 32.632,-10.944 0,0 13.683,-3.392 21.678,-31.787 L 36.757,12.591 C 36.757,12.591 24.72,-2.942 0,0"
             style="fill:#4d4d4d;fill-opacity:1;fill-rule:nonzero;stroke:none"
             id="path31124-7" />
        </g>
        <path
           d="m 0,0 c -1.838,1.839 -2.3645,12.554 -6.2495,13.693 0,-25.521726 1.47,-99.337 0,-103.105 -1.103,-8.821 -54.0335,-19.757 -103.6565,-5.687 -2.186,0.762 -5.648,1.655 -6.759,3.656 0,11.249216 0,78.506305 0,101.608 -1.878,-2.77 -2.773,-6.083 -5.095,-8.602 0,0 -20.401,-1.653 -34.46,13.233 0,0 9.373,24.536 12.681,31.428 1.53,4.954 3.761,9.861 6.529,14.239 5.03,7.95 11.851,11.191 20.764,13.39 24.536,6.28 27.439,11.792 34.736,14.826 2.481,-3.584 11.838,-6.046 17.919,-6.616 14.06,-1.378 26.219,7.077 26.466,6.892 2.205,-1.654 6.07,-4.324 8.545,-5.514 10.415,-5.004 22.42,-5.402 32.632,-10.944 0,0 13.683,-3.392 21.678,-31.787 L 36.757,12.591 C 36.757,12.591 24.72,-2.942 0,0 Z"
           style="fill:#4d4d4d;fill-opacity:1;stroke:#000000;stroke-width:2;stroke-linecap:butt;stroke-linejoin:miter;stroke-miterlimit:10;stroke-dasharray:none;stroke-opacity:1;filter:url(#filter8469-2-8)"
           id="path31130-5"
           transform="matrix(0.94083211,0,0,-0.94083211,287.6416,560.74198)"
           sodipodi:nodetypes="ccccccccccccccccccc"
           inkscape:export-filename="/home/avronr/Documents/MiniDebconf/tshirt/finaldraft6.png"
           inkscape:export-xdpi="131.41048"
           inkscape:export-ydpi="131.41048" />
        <g
           id="g31135-5"
           transform="matrix(0.94083211,0,0,-0.94083211,168.4173,494.42798)"
           style="fill:#4d4d4d;fill-opacity:1;filter:url(#filter8465-3-4)"
           inkscape:export-filename="/home/avronr/Documents/MiniDebconf/tshirt/finaldraft6.png"
           inkscape:export-xdpi="131.41048"
           inkscape:export-ydpi="131.41048">
          <path
             d="M 0,0 C 0,0 11.798,-37.659 10.586,-60.32"
             style="fill:#4d4d4d;fill-opacity:1;fill-rule:nonzero;stroke:#000000;stroke-width:1.103;stroke-linecap:butt;stroke-linejoin:miter;stroke-miterlimit:10;stroke-dasharray:none;stroke-opacity:1"
             id="path31132-2" />
        </g>
        <g
           id="g31150-4"
           transform="matrix(0.94083211,0,0,-0.94083211,293.9527,493.65028)"
           style="fill:#4d4d4d;fill-opacity:1;filter:url(#filter8461-9-7)"
           inkscape:export-filename="/home/avronr/Documents/MiniDebconf/tshirt/finaldraft6.png"
           inkscape:export-xdpi="131.41048"
           inkscape:export-ydpi="131.41048">
          <path
             d="M 0,0 C 0,0 -12.957,-38.32 -12.682,-57.618"
             style="fill:#4d4d4d;fill-opacity:1;fill-rule:nonzero;stroke:#000000;stroke-width:1.103;stroke-linecap:butt;stroke-linejoin:miter;stroke-miterlimit:10;stroke-dasharray:none;stroke-opacity:1"
             id="path31148-9" />
        </g>
        <g
           id="g31158-4"
           transform="matrix(0.94083211,0,0,-0.94083211,204.2103,481.20048)"
           style="fill:#4d4d4d;fill-opacity:1;filter:url(#filter8457-7-8)"
           inkscape:export-filename="/home/avronr/Documents/MiniDebconf/tshirt/finaldraft6.png"
           inkscape:export-xdpi="131.41048"
           inkscape:export-ydpi="131.41048">
          <path
             d="M 0,0 C 1.103,-4.962 6.893,-15.713 23.433,-16.816 46.591,-17.367 55.131,-2.599 56.239,1.103"
             style="fill:#4d4d4d;fill-opacity:1;stroke:#000000;stroke-width:1.103;stroke-linecap:butt;stroke-linejoin:miter;stroke-miterlimit:10;stroke-dasharray:none;stroke-opacity:1"
             id="path31156-4" />
        </g>
        <g
           id="g31165-7"
           transform="matrix(0.94083211,0,0,-0.94083211,207.5823,478.86618)"
           style="fill:#4d4d4d;fill-opacity:1;filter:url(#filter8453-4-5)"
           inkscape:export-filename="/home/avronr/Documents/MiniDebconf/tshirt/finaldraft6.png"
           inkscape:export-xdpi="131.41048"
           inkscape:export-ydpi="131.41048">
          <path
             d="M 0,0 C 1.103,-4.962 5.79,-14.611 23.157,-15.163 42.455,-13.784 48.514,-3.15 49.623,0.551"
             style="fill:#4d4d4d;fill-opacity:1;stroke:#000000;stroke-width:1.103;stroke-linecap:butt;stroke-linejoin:miter;stroke-miterlimit:10;stroke-dasharray:none;stroke-opacity:1"
             id="path31162-9" />
        </g>
        <g
           id="g31170-5"
           transform="matrix(0.94083211,0,0,-0.94083211,286.4312,556.67728)"
           style="fill:#4d4d4d;fill-opacity:1;filter:url(#filter8449-0-8)"
           inkscape:export-filename="/home/avronr/Documents/MiniDebconf/tshirt/finaldraft6.png"
           inkscape:export-xdpi="131.41048"
           inkscape:export-ydpi="131.41048">
          <path
             d="M 0,0 C 0,0 21.779,-2.757 36.39,13.508"
             style="fill:#4d4d4d;fill-opacity:1;fill-rule:nonzero;stroke:#000000;stroke-width:1.103;stroke-linecap:butt;stroke-linejoin:miter;stroke-miterlimit:10;stroke-dasharray:none;stroke-opacity:1"
             id="path31168-5" />
        </g>
        <g
           id="g31176-6"
           transform="matrix(0.94083211,0,0,-0.94083211,142.7398,540.85538)"
           style="fill:#4d4d4d;fill-opacity:1;filter:url(#filter8445-6-4)"
           inkscape:export-filename="/home/avronr/Documents/MiniDebconf/tshirt/finaldraft6.png"
           inkscape:export-xdpi="131.41048"
           inkscape:export-ydpi="131.41048">
          <path
             d="M 0,0 C 0,0 4.411,-13.509 34.736,-15.714"
             style="fill:#4d4d4d;fill-opacity:1;fill-rule:nonzero;stroke:#000000;stroke-width:1.103;stroke-linecap:butt;stroke-linejoin:miter;stroke-miterlimit:10;stroke-dasharray:none;stroke-opacity:1"
             id="path31174-1" />
        </g>
      </g>
      <g
         id="g50438"
         style="fill:#4d4d4d;fill-opacity:1"
         transform="matrix(1.3400356,0,0,1.480091,-173.54048,-666.83154)"
         inkscape:export-filename="/home/avronr/Sources/debconf23-artwork/path9717.png"
         inkscape:export-xdpi="96"
         inkscape:export-ydpi="96">
        <g
           id="g39766-5"
           transform="matrix(0.94083211,0,0,-0.94083211,478.6706,562.38888)"
           style="fill:#4d4d4d;fill-opacity:1;filter:url(#filter8437-6-1)"
           inkscape:export-filename="/home/avronr/Documents/MiniDebconf/tshirt/finaldraft6.png"
           inkscape:export-xdpi="131.41048"
           inkscape:export-ydpi="131.41048">
          <path
             d="m 0,0 c -1.839,1.839 -2.09,12.554 -5.974,13.694 -3.859,-6.617 0.918,-99.338 -0.551,-103.106 -1.103,-8.821 -53.758,-19.757 -103.381,-5.687 -2.186,0.762 -6.178,1.655 -7.288,3.656 2.142,8.005 5.083,82.255 1.057,101.608 -1.877,-2.77 -3.301,-6.083 -5.623,-8.602 0,0 -20.401,-1.653 -34.461,13.233 0,0 9.373,24.536 12.682,31.428 1.53,4.954 3.76,9.861 6.529,14.238 5.029,7.951 11.851,11.192 20.763,13.391 24.536,6.28 27.439,11.792 34.736,14.826 2.482,-3.584 11.839,-6.046 17.919,-6.616 14.061,-1.378 26.221,7.077 26.466,6.892 2.205,-1.654 6.07,-4.325 8.546,-5.514 10.415,-5.004 22.42,-5.402 32.632,-10.944 0,0 13.682,-3.391 21.677,-31.787 L 36.757,12.591 C 36.757,12.591 24.72,-2.942 0,0"
             style="fill:#4d4d4d;fill-opacity:1;fill-rule:nonzero;stroke:none"
             id="path39764-2" />
        </g>
        <g
           id="g39770-1"
           transform="matrix(0.94083211,0,0,-0.94083211,478.6706,562.38888)"
           style="fill:#4d4d4d;fill-opacity:1;filter:url(#filter8433-6-4)"
           inkscape:export-filename="/home/avronr/Documents/MiniDebconf/tshirt/finaldraft6.png"
           inkscape:export-xdpi="131.41048"
           inkscape:export-ydpi="131.41048">
          <path
             d="m 0,0 c -1.839,1.839 -2.09,12.554 -5.974,13.694 -3.859,-6.617 0.918,-99.338 -0.551,-103.106 -1.103,-8.821 -53.758,-19.757 -103.381,-5.687 -2.186,0.762 -6.178,1.655 -7.288,3.656 2.142,8.005 5.083,82.255 1.057,101.608 -1.877,-2.77 -3.301,-6.083 -5.623,-8.602 0,0 -20.401,-1.653 -34.461,13.233 0,0 9.373,24.536 12.682,31.428 1.53,4.954 3.76,9.861 6.529,14.238 5.029,7.951 11.851,11.192 20.763,13.391 24.536,6.28 27.439,11.792 34.736,14.826 2.482,-3.584 11.839,-6.046 17.919,-6.616 14.061,-1.378 26.221,7.077 26.466,6.892 2.205,-1.654 6.07,-4.325 8.546,-5.514 10.415,-5.004 22.42,-5.402 32.632,-10.944 0,0 13.682,-3.391 21.677,-31.787 L 36.757,12.591 C 36.757,12.591 24.72,-2.942 0,0 Z"
             style="fill:#4d4d4d;fill-opacity:1;stroke:#000000;stroke-width:2;stroke-linecap:butt;stroke-linejoin:miter;stroke-miterlimit:10;stroke-dasharray:none;stroke-opacity:1"
             id="path39768-7" />
        </g>
        <g
           id="g39774-2"
           transform="matrix(0.94083211,0,0,-0.94083211,359.4457,496.07538)"
           style="fill:#4d4d4d;fill-opacity:1;filter:url(#filter8429-6-7)"
           inkscape:export-filename="/home/avronr/Documents/MiniDebconf/tshirt/finaldraft6.png"
           inkscape:export-xdpi="131.41048"
           inkscape:export-ydpi="131.41048">
          <path
             d="M 0,0 C 0,0 11.798,-37.658 10.586,-60.319"
             style="fill:#4d4d4d;fill-opacity:1;fill-rule:nonzero;stroke:#000000;stroke-width:1.103;stroke-linecap:butt;stroke-linejoin:miter;stroke-miterlimit:10;stroke-dasharray:none;stroke-opacity:1"
             id="path39772-8" />
        </g>
        <g
           id="g39778-3"
           transform="matrix(0.94083211,0,0,-0.94083211,484.9807,495.29718)"
           style="fill:#4d4d4d;fill-opacity:1;filter:url(#filter8425-8-5)"
           inkscape:export-filename="/home/avronr/Documents/MiniDebconf/tshirt/finaldraft6.png"
           inkscape:export-xdpi="131.41048"
           inkscape:export-ydpi="131.41048">
          <path
             d="M 0,0 C 0,0 -12.957,-38.32 -12.681,-57.617"
             style="fill:#4d4d4d;fill-opacity:1;fill-rule:nonzero;stroke:#000000;stroke-width:1.103;stroke-linecap:butt;stroke-linejoin:miter;stroke-miterlimit:10;stroke-dasharray:none;stroke-opacity:1"
             id="path39776-2" />
        </g>
        <g
           id="g39782-5"
           transform="matrix(0.94083211,0,0,-0.94083211,477.4596,558.32408)"
           style="fill:#4d4d4d;fill-opacity:1;filter:url(#filter8421-9-5)"
           inkscape:export-filename="/home/avronr/Documents/MiniDebconf/tshirt/finaldraft6.png"
           inkscape:export-xdpi="131.41048"
           inkscape:export-ydpi="131.41048">
          <path
             d="M 0,0 C 0,0 21.778,-2.757 36.39,13.508"
             style="fill:#4d4d4d;fill-opacity:1;fill-rule:nonzero;stroke:#000000;stroke-width:1.103;stroke-linecap:butt;stroke-linejoin:miter;stroke-miterlimit:10;stroke-dasharray:none;stroke-opacity:1"
             id="path39780-4" />
        </g>
        <g
           id="g39786-2"
           transform="matrix(0.94083211,0,0,-0.94083211,333.7682,542.50228)"
           style="fill:#4d4d4d;fill-opacity:1;filter:url(#filter8417-0-0)"
           inkscape:export-filename="/home/avronr/Documents/MiniDebconf/tshirt/finaldraft6.png"
           inkscape:export-xdpi="131.41048"
           inkscape:export-ydpi="131.41048">
          <path
             d="M 0,0 C 0,0 4.411,-13.509 34.736,-15.714"
             style="fill:#4d4d4d;fill-opacity:1;fill-rule:nonzero;stroke:#000000;stroke-width:1.103;stroke-linecap:butt;stroke-linejoin:miter;stroke-miterlimit:10;stroke-dasharray:none;stroke-opacity:1"
             id="path39784-3" />
        </g>
      </g>
      <circle
         id="path9717-8"
         style="fill:#000000;stroke:none;stroke-width:0.15681"
         cx="234.13724"
         cy="49.182583"
         r="0.23521458"
         inkscape:export-filename="/home/avronr/Sources/debconf23-artwork/path9717.png"
         inkscape:export-xdpi="96"
         inkscape:export-ydpi="96" />
      <g
         id="g5059-2"
         transform="matrix(0.21377757,0,0,0.21377757,121.99906,21.316609)"
         inkscape:export-filename="/home/avronr/Sources/debconf23-artwork/path9717.png"
         inkscape:export-xdpi="96"
         inkscape:export-ydpi="96">
        <g
           id="g5005-5"
           style="fill:#ffffff">
          <g
             id="g4987"
             style="fill:#ffffff">
            <path
               d="m 185.90543,533.742 v -11.72542 h 2.46052 q 1.76944,0 2.79466,0.34933 1.10116,0.34174 1.99727,1.16191 1.81501,1.65553 1.81501,4.35147 0,2.70353 -1.89095,4.37425 -0.94928,0.83536 -1.98968,1.16191 -0.97206,0.32655 -2.75669,0.32655 z m 1.76944,-1.66312 h 0.79739 q 1.19229,0 1.98209,-0.25061 0.78979,-0.2658 1.42771,-0.84296 1.3062,-1.19228 1.3062,-3.10602 0,-1.92892 -1.29102,-3.12881 -1.16191,-1.07078 -3.42498,-1.07078 h -0.79739 z"
               id="path4927"
               style="font-size:15.5529px;line-height:1.25;font-family:Futura;-inkscape-font-specification:'Futura, Normal';fill:#ffffff;stroke-width:0.388822" />
            <path
               d="m 203.66824,523.6797 h -4.70081 v 2.81745 h 4.56411 v 1.66313 h -4.56411 v 3.9186 h 4.70081 v 1.66312 h -6.47025 v -11.72542 h 6.47025 z"
               id="path4929"
               style="font-size:15.5529px;line-height:1.25;font-family:Futura;-inkscape-font-specification:'Futura, Normal';fill:#ffffff;stroke-width:0.388822" />
            <path
               d="m 205.99206,533.742 v -11.72542 h 1.76185 q 1.1771,0 1.87577,0.18226 0.70626,0.18226 1.19228,0.61513 0.49363,0.44805 0.78221,1.11634 0.29617,0.67588 0.29617,1.36696 0,1.26063 -0.96446,2.13396 0.93408,0.31896 1.47327,1.11635 0.54678,0.78979 0.54678,1.83779 0,1.37455 -0.97205,2.32382 -0.58476,0.58476 -1.3138,0.81258 -0.79739,0.22023 -1.99727,0.22023 z m 1.76945,-6.69048 h 0.55437 q 0.98725,0 1.4429,-0.43287 0.46324,-0.44046 0.46324,-1.29101 0,-0.82776 -0.47084,-1.25304 -0.47084,-0.43287 -1.36695,-0.43287 h -0.62272 z m 0,5.02736 h 1.09356 q 1.19988,0 1.76185,-0.47084 0.59235,-0.50881 0.59235,-1.29102 0,-0.75941 -0.56957,-1.27582 -0.55437,-0.50881 -1.98208,-0.50881 h -0.89611 z"
               id="path4931"
               style="font-size:15.5529px;line-height:1.25;font-family:Futura;-inkscape-font-specification:'Futura, Normal';fill:#ffffff;stroke-width:0.388822" />
            <path
               d="m 223.85359,522.64689 v 2.096 q -1.53402,-1.28342 -3.17437,-1.28342 -1.80741,0 -3.04527,1.29861 -1.24544,1.29101 -1.24544,3.15918 0,1.84539 1.24544,3.11362 1.24545,1.26823 3.05287,1.26823 0.93408,0 1.58718,-0.30377 0.36452,-0.15188 0.75183,-0.41009 0.3949,-0.2582 0.82776,-0.62272 v 2.13397 q -1.51883,0.85814 -3.18956,0.85814 -2.51367,0 -4.29071,-1.75426 -1.76945,-1.76944 -1.76945,-4.26793 0,-2.24029 1.48087,-3.99454 1.8226,-2.14916 4.71599,-2.14916 1.57959,0 3.05286,0.85814 z"
               id="path4933"
               style="font-size:15.5529px;line-height:1.25;font-family:Futura;-inkscape-font-specification:'Futura, Normal';fill:#ffffff;stroke-width:0.388822" />
            <path
               d="m 225.50153,527.82613 q 0,-2.47571 1.81501,-4.25275 1.80742,-1.77704 4.34388,-1.77704 2.50608,0 4.29831,1.79223 1.79982,1.79223 1.79982,4.30591 0,2.52886 -1.80741,4.29072 -1.81502,1.76944 -4.38185,1.76944 -2.27066,0 -4.07808,-1.572 -1.98968,-1.73906 -1.98968,-4.55651 z m 1.78464,0.0228 q 0,1.94412 1.3062,3.19716 1.2986,1.25304 2.9997,1.25304 1.84539,0 3.11362,-1.27583 1.26823,-1.29101 1.26823,-3.14399 0,-1.87576 -1.25304,-3.14399 -1.24545,-1.27583 -3.08324,-1.27583 -1.8302,0 -3.09084,1.27583 -1.26063,1.26063 -1.26063,3.11361 z"
               id="path4935"
               style="font-size:15.5529px;line-height:1.25;font-family:Futura;-inkscape-font-specification:'Futura, Normal';fill:#ffffff;stroke-width:0.388822" />
            <path
               d="m 239.98365,533.742 v -12.52281 l 8.55106,8.94595 v -8.14856 h 1.76945 v 12.43928 l -8.55106,-8.92317 v 8.20931 z"
               id="path4937"
               style="font-size:15.5529px;line-height:1.25;font-family:Futura;-inkscape-font-specification:'Futura, Normal';fill:#ffffff;stroke-width:0.388822" />
            <path
               d="m 258.96913,523.6797 h -4.08568 v 2.81745 h 3.94139 v 1.66313 h -3.94139 v 5.58172 h -1.76944 v -11.72542 h 5.85512 z"
               id="path4939"
               style="font-size:15.5529px;line-height:1.25;font-family:Futura;-inkscape-font-specification:'Futura, Normal';fill:#ffffff;stroke-width:0.388822" />
            <path
               d="m 268.30998,532.07888 h 4.36666 v 1.66312 h -7.87517 l 4.07048,-4.92862 q 0.59994,-0.73664 1.00243,-1.27583 0.41009,-0.53919 0.62273,-0.90371 0.43287,-0.71385 0.43287,-1.28342 0,-0.82017 -0.57716,-1.37454 -0.57716,-0.55438 -1.42771,-0.55438 -1.77704,0 -2.03524,2.10359 h -1.76185 q 0.42527,-3.70596 3.74393,-3.70596 1.60237,0 2.68834,1.01762 1.09357,1.01762 1.09357,2.52127 0,0.95687 -0.50881,1.87576 -0.25821,0.47844 -0.75942,1.13913 -0.49362,0.6531 -1.25304,1.54922 z"
               id="path4941"
               style="font-size:15.5529px;line-height:1.25;font-family:Futura;-inkscape-font-specification:'Futura, Normal';fill:#ffffff;stroke-width:0.388822" />
            <path
               d="m 278.03813,528.29697 v -1.51124 q 1.12394,0 1.51125,-0.25061 0.69107,-0.44046 0.69107,-1.41252 0,-0.75183 -0.50122,-1.22267 -0.49362,-0.47843 -1.28341,-0.47843 -0.73664,0 -1.13913,0.35693 -0.38731,0.36452 -0.57716,1.23026 h -1.76185 q 0.27339,-1.65554 1.12394,-2.42255 0.85055,-0.77461 2.37698,-0.77461 1.54162,0 2.51367,0.91131 0.97206,0.9037 0.97206,2.33141 0,1.60997 -1.27582,2.50608 1.45808,0.85815 1.45808,2.78707 0,1.57959 -1.06319,2.58203 -1.06318,1.00243 -2.72631,1.00243 -2.11878,0 -3.14399,-1.55681 -0.42528,-0.6531 -0.53919,-1.80742 h 1.70869 q 0.1367,0.85055 0.6607,1.3062 0.53159,0.44806 1.38214,0.44806 0.85814,0 1.42011,-0.56956 0.56197,-0.58476 0.56197,-1.48087 0,-1.18469 -0.84295,-1.68591 -0.49363,-0.28858 -1.52644,-0.28858 z"
               id="path4943"
               style="font-size:15.5529px;line-height:1.25;font-family:Futura;-inkscape-font-specification:'Futura, Normal';fill:#ffffff;stroke-width:0.388822" />
          </g>
          <g
             id="g4976"
             style="fill:#ffffff">
            <path
               d="m 217.24287,545.6266 4.56411,-4.67802 h 2.36179 l -5.30075,5.30834 5.33113,6.41709 h -2.36939 l -4.22237,-5.21721 -0.36452,0.36452 v 4.85269 h -1.76945 v -11.72543 h 1.76945 z"
               id="path4955"
               style="font-size:15.5529px;line-height:1.25;font-family:Futura;-inkscape-font-specification:'Futura, Normal';fill:#ffffff;stroke-width:0.388822" />
            <path
               d="m 224.57126,548.92248 q 0,-1.60237 1.14672,-2.72631 1.14673,-1.12394 2.79467,-1.12394 1.65553,0 2.80985,1.13153 1.13912,1.13154 1.13912,2.77948 0,1.66312 -1.14672,2.78706 -1.15432,1.11635 -2.83263,1.11635 -1.66313,0 -2.78707,-1.13913 -1.12394,-1.12394 -1.12394,-2.82504 z m 1.74666,0.0304 q 0,1.10875 0.59235,1.75426 0.60754,0.6531 1.60238,0.6531 1.00243,0 1.60237,-0.64551 0.59994,-0.64551 0.59994,-1.72388 0,-1.07838 -0.59994,-1.72388 -0.60754,-0.6531 -1.60237,-0.6531 -0.97966,0 -1.58719,0.6531 -0.60754,0.6531 -0.60754,1.68591 z"
               id="path4957"
               style="font-size:15.5529px;line-height:1.25;font-family:Futura;-inkscape-font-specification:'Futura, Normal';fill:#ffffff;stroke-width:0.388822" />
            <path
               d="m 240.02544,545.59623 v 2.27066 q -0.58476,-0.71385 -1.048,-0.97965 -0.45565,-0.27339 -1.07078,-0.27339 -0.96446,0 -1.60238,0.67588 -0.63791,0.67588 -0.63791,1.69351 0,1.0404 0.61513,1.70869 0.62272,0.66829 1.58719,0.66829 0.61513,0 1.08597,-0.2658 0.45565,-0.2582 1.07078,-1.00243 v 2.25547 q -1.04041,0.53919 -2.08081,0.53919 -1.71629,0 -2.8706,-1.10875 -1.15432,-1.11635 -1.15432,-2.77188 0,-1.65554 1.1695,-2.79466 1.16951,-1.13913 2.87061,-1.13913 1.09356,0 2.06562,0.524 z"
               id="path4959"
               style="font-size:15.5529px;line-height:1.25;font-family:Futura;-inkscape-font-specification:'Futura, Normal';fill:#ffffff;stroke-width:0.388822" />
            <path
               d="m 242.08346,539.84742 h 1.70869 v 6.04498 q 0.91131,-0.82017 2.01246,-0.82017 1.25305,0 2.00487,0.81258 0.63791,0.70626 0.63791,2.25547 v 4.53373 h -1.70869 v -4.37425 q 0,-0.88852 -0.31896,-1.28342 -0.31136,-0.40249 -1.01002,-0.40249 -0.89612,0 -1.26064,0.55437 -0.35693,0.56197 -0.35693,1.92893 v 3.57686 h -1.70869 z"
               id="path4961"
               style="font-size:15.5529px;line-height:1.25;font-family:Futura;-inkscape-font-specification:'Futura, Normal';fill:#ffffff;stroke-width:0.388822" />
            <path
               d="m 252.32043,545.27727 v 7.39674 h -1.70869 v -7.39674 z m -1.96689,-3.07565 q 0,-0.44805 0.32655,-0.7746 0.32655,-0.32655 0.7822,-0.32655 0.46324,0 0.78979,0.32655 0.32655,0.31895 0.32655,0.7822 0,0.46324 -0.32655,0.78979 -0.31895,0.32655 -0.7822,0.32655 -0.46324,0 -0.78979,-0.32655 -0.32655,-0.32655 -0.32655,-0.79739 z"
               id="path4963"
               style="font-size:15.5529px;line-height:1.25;font-family:Futura;-inkscape-font-specification:'Futura, Normal';fill:#ffffff;stroke-width:0.388822" />
          </g>
        </g>
        <g
           id="g1217-6"
           transform="matrix(0.59266666,0,0,0.59266666,79.911444,159.64978)">
          <path
             style="fill:none;stroke:#a7c215;stroke-width:4.71336;stroke-linecap:round;stroke-linejoin:miter;stroke-dasharray:none;stroke-opacity:1"
             d="m 254.36027,464.23345 c 1.64231,-44.09519 28.83387,-36.93885 28.83387,-36.93885"
             id="path13719-8-6-8" />
          <path
             style="color:#000000;fill:url(#linearGradient4003);fill-opacity:1;stroke-width:0.71257"
             d="m 251.82859,446.54538 c -6.42285,1.88779 -14.79792,5.2213 -22.60486,11.00336 -15.61388,11.5641 -28.95072,32.94002 -19.85741,72.07751 9.09348,39.13824 31.49492,54.64858 51.61491,60.35404 20.11997,5.70553 37.96336,1.61957 37.96336,1.61957 0.0329,-6.8e-4 5.48264,-0.0622 9.36906,-3.6645 1.94907,-1.80661 3.49609,-4.50677 3.75259,-8.51516 0.25648,-4.00844 -0.77321,-9.32429 -3.96312,-16.38226 -3.76874,-8.33863 -4.64562,-14.58914 -3.96706,-19.96746 0.67855,-5.37829 2.91566,-9.89031 5.39387,-14.74134 4.95646,-9.70195 10.86439,-20.75886 7.06525,-42.74076 -3.80095,-21.99247 -17.27631,-32.34879 -29.79106,-37.19055 -12.51473,-4.84175 -24.0777,-4.18319 -24.0777,-4.18319 l -0.004,7.3e-4 -10e-4,3.7e-4 c 0,0 -4.47093,0.44189 -10.8938,2.32968 z"
             id="path13721-6-2-8" />
          <g
             style="overflow:visible;fill:#ffffff"
             id="g13751-2-2-9"
             transform="matrix(1.3242692,-0.35483684,0.35483684,1.3242692,407.2552,393.29112)">
            <g
               id="g13749-5-5-9"
               i:layer="yes"
               i:dimmedPercent="50"
               i:rgbTrio="#4F008000FFFF"
               transform="translate(-167.77498,8.5032154)"
               style="fill:#ffffff">
              <g
                 id="g13747-1-2-7"
                 style="fill:#ffffff">
                <path
                   i:knockout="Off"
                   fill="#a80030"
                   d="m 51.986,57.297 c -1.797,0.025 0.34,0.926 2.686,1.287 0.648,-0.506 1.236,-1.018 1.76,-1.516 -1.461,0.358 -2.948,0.366 -4.446,0.229"
                   id="path13723-3-2-4"
                   style="fill:#ffffff" />
                <path
                   i:knockout="Off"
                   fill="#a80030"
                   d="m 61.631,54.893 c 1.07,-1.477 1.85,-3.094 2.125,-4.766 -0.24,1.192 -0.887,2.221 -1.496,3.307 -3.359,2.115 -0.316,-1.256 -0.002,-2.537 -3.612,4.546 -0.496,2.726 -0.627,3.996"
                   id="path13725-9-7-8"
                   style="fill:#ffffff" />
                <path
                   i:knockout="Off"
                   fill="#a80030"
                   d="m 65.191,45.629 c 0.217,-3.236 -0.637,-2.213 -0.924,-0.978 0.335,0.174 0.6,2.281 0.924,0.978"
                   id="path13727-7-1-4"
                   style="fill:#ffffff" />
                <path
                   i:knockout="Off"
                   fill="#a80030"
                   d="m 45.172,1.399 c 0.959,0.172 2.072,0.304 1.916,0.533 1.049,-0.23 1.287,-0.442 -1.916,-0.533"
                   id="path13729-3-5-8"
                   style="fill:#ffffff" />
                <path
                   i:knockout="Off"
                   fill="#a80030"
                   d="M 47.088,1.932 46.41,2.072 47.041,2.016 47.088,1.932"
                   id="path13731-7-2-5"
                   style="fill:#ffffff" />
                <path
                   i:knockout="Off"
                   fill="#a80030"
                   d="m 76.992,46.856 c 0.107,2.906 -0.85,4.316 -1.713,6.812 l -1.553,0.776 c -1.271,2.468 0.123,1.567 -0.787,3.53 -1.984,1.764 -6.021,5.52 -7.313,5.863 -0.943,-0.021 0.639,-1.113 0.846,-1.541 -2.656,1.824 -2.131,2.738 -6.193,3.846 L 60.16,65.878 C 50.142,70.591 36.226,61.251 36.409,48.507 c -0.107,0.809 -0.304,0.607 -0.526,0.934 -0.517,-6.557 3.028,-13.143 9.007,-15.832 5.848,-2.895 12.704,-1.707 16.893,2.197 -2.301,-3.014 -6.881,-6.209 -12.309,-5.91 -5.317,0.084 -10.291,3.463 -11.951,7.131 -2.724,1.715 -3.04,6.611 -4.227,7.507 -1.597,11.737 3.004,16.808 10.787,22.773 1.225,0.826 0.345,0.951 0.511,1.58 -2.586,-1.211 -4.954,-3.039 -6.901,-5.277 1.033,1.512 2.148,2.982 3.589,4.137 -2.438,-0.826 -5.695,-5.908 -6.646,-6.115 4.203,7.525 17.052,13.197 23.78,10.383 -3.113,0.115 -7.068,0.064 -10.566,-1.229 -1.469,-0.756 -3.467,-2.322 -3.11,-2.615 9.182,3.43 18.667,2.598 26.612,-3.771 2.021,-1.574 4.229,-4.252 4.867,-4.289 -0.961,1.445 0.164,0.695 -0.574,1.971 2.014,-3.248 -0.875,-1.322 2.082,-5.609 l 1.092,1.504 c -0.406,-2.696 3.348,-5.97 2.967,-10.234 0.861,-1.304 0.961,1.403 0.047,4.403 1.268,-3.328 0.334,-3.863 0.66,-6.609 0.352,0.923 0.814,1.904 1.051,2.878 -0.826,-3.216 0.848,-5.416 1.262,-7.285 -0.408,-0.181 -1.275,1.422 -1.473,-2.377 0.029,-1.65 0.459,-0.865 0.625,-1.271 -0.324,-0.186 -1.174,-1.451 -1.691,-3.877 0.375,-0.57 1.002,1.478 1.512,1.562 -0.328,-1.929 -0.893,-3.4 -0.916,-4.88 -1.49,-3.114 -0.527,0.415 -1.736,-1.337 -1.586,-4.947 1.316,-1.148 1.512,-3.396 2.404,3.483 3.775,8.881 4.404,11.117 -0.48,-2.726 -1.256,-5.367 -2.203,-7.922 0.73,0.307 -1.176,-5.609 0.949,-1.691 C 83.519,18.706 76.074,10.902 69.225,7.24 70.063,8.007 71.121,8.97 70.741,9.121 67.335,7.093 67.934,6.935 67.446,6.078 64.671,4.949 64.489,6.169 62.651,6.08 57.421,3.306 56.413,3.601 51.6,1.863 l 0.219,1.023 c -3.465,-1.154 -4.037,0.438 -7.782,0.004 -0.228,-0.178 1.2,-0.644 2.375,-0.815 -3.35,0.442 -3.193,-0.66 -6.471,0.122 0.808,-0.567 1.662,-0.942 2.524,-1.424 -2.732,0.166 -6.522,1.59 -5.352,0.295 -4.456,1.988 -12.37,4.779 -16.811,8.943 l -0.14,-0.933 c -2.035,2.443 -8.874,7.296 -9.419,10.46 l -0.544,0.127 c -1.059,1.793 -1.744,3.825 -2.584,5.67 -1.385,2.36 -2.03,0.908 -1.833,1.278 -2.724,5.523 -4.077,10.164 -5.246,13.97 0.833,1.245 0.02,7.495 0.335,12.497 -1.368,24.704 17.338,48.69 37.785,54.228 2.997,1.072 7.454,1.031 11.245,1.141 -4.473,-1.279 -5.051,-0.678 -9.408,-2.197 -3.143,-1.48 -3.832,-3.17 -6.058,-5.102 l 0.881,1.557 c -4.366,-1.545 -2.539,-1.912 -6.091,-3.037 l 0.941,-1.229 C 28.751,98.334 26.418,96.056 25.78,94.795 l -1.548,0.061 c -1.86,-2.295 -2.851,-3.949 -2.779,-5.23 l -0.5,0.891 c -0.567,-0.973 -6.843,-8.607 -3.587,-6.83 -0.605,-0.553 -1.409,-0.9 -2.281,-2.484 l 0.663,-0.758 c -1.567,-2.016 -2.884,-4.6 -2.784,-5.461 0.836,1.129 1.416,1.34 1.99,1.533 -3.957,-9.818 -4.179,-0.541 -7.176,-9.994 L 8.412,66.472 C 7.926,65.74 7.631,64.945 7.24,64.165 l 0.276,-2.75 C 4.667,58.121 6.719,47.409 7.13,41.534 7.415,39.145 9.508,36.602 11.1,32.614 l -0.97,-0.167 c 1.854,-3.234 10.586,-12.988 14.63,-12.486 1.959,-2.461 -0.389,-0.009 -0.772,-0.629 4.303,-4.453 5.656,-3.146 8.56,-3.947 3.132,-1.859 -2.688,0.725 -1.203,-0.709 5.414,-1.383 3.837,-3.144 10.9,-3.846 0.745,0.424 -1.729,0.655 -2.35,1.205 4.511,-2.207 14.275,-1.705 20.617,1.225 7.359,3.439 15.627,13.605 15.953,23.17 l 0.371,0.1 c -0.188,3.802 0.582,8.199 -0.752,12.238 l 0.908,-1.912"
                   id="path13733-5-1-5"
                   style="fill:#ffffff" />
                <path
                   i:knockout="Off"
                   fill="#a80030"
                   d="m 32.372,59.764 -0.252,1.26 c 1.181,1.604 2.118,3.342 3.626,4.596 -1.085,-2.118 -1.891,-2.993 -3.374,-5.856"
                   id="path13735-0-1-5"
                   style="fill:#ffffff" />
                <path
                   i:knockout="Off"
                   fill="#a80030"
                   d="m 35.164,59.654 c -0.625,-0.691 -0.995,-1.523 -1.409,-2.352 0.396,1.457 1.207,2.709 1.962,3.982 l -0.553,-1.63"
                   id="path13737-2-0-9"
                   style="fill:#ffffff" />
                <path
                   i:knockout="Off"
                   fill="#a80030"
                   d="m 84.568,48.916 -0.264,0.662 c -0.484,3.438 -1.529,6.84 -3.131,9.994 1.77,-3.328 2.915,-6.968 3.395,-10.656"
                   id="path13739-1-1-8"
                   style="fill:#ffffff" />
                <path
                   i:knockout="Off"
                   fill="#a80030"
                   d="M 45.527,0.537 C 46.742,0.092 48.514,0.293 49.803,0 48.123,0.141 46.451,0.225 44.8,0.438 l 0.727,0.099"
                   id="path13741-8-8-8"
                   style="fill:#ffffff" />
                <path
                   i:knockout="Off"
                   fill="#a80030"
                   d="m 2.872,23.219 c 0.28,2.592 -1.95,3.598 0.494,1.889 1.31,-2.951 -0.512,-0.815 -0.494,-1.889"
                   id="path13743-7-7-0"
                   style="fill:#ffffff" />
                <path
                   i:knockout="Off"
                   fill="#a80030"
                   d="M 0,35.215 C 0.563,33.487 0.665,32.449 0.88,31.449 -0.676,33.438 0.164,33.862 0,35.215"
                   id="path13745-1-6-6"
                   style="fill:#ffffff" />
              </g>
            </g>
          </g>
          <path
             style="color:#000000;fill:#a7c215;fill-opacity:1;stroke-width:0.71257"
             d="m 254.5777,442.18756 c 1.22032,0.065 2.09709,-0.0569 2.67629,-0.34934 0.57921,-0.29243 0.85221,-0.77741 0.82949,-1.3806 -0.0228,-0.60316 -0.32013,-1.32463 -0.83922,-2.15301 -2.07658,-3.31353 -7.74971,-8.36859 -14.40033,-13.66134 -13.30122,-10.58547 -30.50275,-22.07854 -30.50275,-22.07854 l -0.18927,-0.12804 0.0444,0.22408 c 0,0 6.35603,31.44926 37.64098,38.75437 1.9553,0.45656 3.51995,0.70747 4.74027,0.77242 z"
             id="path13753-55-0-2" />
          <g
             style="overflow:visible"
             id="g13783-8-0-5"
             transform="matrix(1.3242692,-0.35483684,0.35483684,1.3242692,412.39284,389.46763)">
            <g
               id="g13781-5-9-0"
               i:layer="yes"
               i:dimmedPercent="50"
               i:rgbTrio="#4F008000FFFF"
               transform="translate(-169.86946,8.7530192)">
              <g
                 id="g13779-6-5-6">
                <path
                   i:knockout="Off"
                   fill="#a80030"
                   d="m 51.986,57.297 c -1.797,0.025 0.34,0.926 2.686,1.287 0.648,-0.506 1.236,-1.018 1.76,-1.516 -1.461,0.358 -2.948,0.366 -4.446,0.229"
                   id="path13755-7-6-5" />
                <path
                   i:knockout="Off"
                   fill="#a80030"
                   d="m 61.631,54.893 c 1.07,-1.477 1.85,-3.094 2.125,-4.766 -0.24,1.192 -0.887,2.221 -1.496,3.307 -3.359,2.115 -0.316,-1.256 -0.002,-2.537 -3.612,4.546 -0.496,2.726 -0.627,3.996"
                   id="path13757-9-2-9" />
                <path
                   i:knockout="Off"
                   fill="#a80030"
                   d="m 65.191,45.629 c 0.217,-3.236 -0.637,-2.213 -0.924,-0.978 0.335,0.174 0.6,2.281 0.924,0.978"
                   id="path13759-4-8-1" />
                <path
                   i:knockout="Off"
                   fill="#a80030"
                   d="m 45.172,1.399 c 0.959,0.172 2.072,0.304 1.916,0.533 1.049,-0.23 1.287,-0.442 -1.916,-0.533"
                   id="path13761-1-5-5" />
                <path
                   i:knockout="Off"
                   fill="#a80030"
                   d="M 47.088,1.932 46.41,2.072 47.041,2.016 47.088,1.932"
                   id="path13763-6-9-2" />
                <path
                   i:knockout="Off"
                   fill="#a80030"
                   d="m 76.992,46.856 c 0.107,2.906 -0.85,4.316 -1.713,6.812 l -1.553,0.776 c -1.271,2.468 0.123,1.567 -0.787,3.53 -1.984,1.764 -6.021,5.52 -7.313,5.863 -0.943,-0.021 0.639,-1.113 0.846,-1.541 -2.656,1.824 -2.131,2.738 -6.193,3.846 L 60.16,65.878 C 50.142,70.591 36.226,61.251 36.409,48.507 c -0.107,0.809 -0.304,0.607 -0.526,0.934 -0.517,-6.557 3.028,-13.143 9.007,-15.832 5.848,-2.895 12.704,-1.707 16.893,2.197 -2.301,-3.014 -6.881,-6.209 -12.309,-5.91 -5.317,0.084 -10.291,3.463 -11.951,7.131 -2.724,1.715 -3.04,6.611 -4.227,7.507 -1.597,11.737 3.004,16.808 10.787,22.773 1.225,0.826 0.345,0.951 0.511,1.58 -2.586,-1.211 -4.954,-3.039 -6.901,-5.277 1.033,1.512 2.148,2.982 3.589,4.137 -2.438,-0.826 -5.695,-5.908 -6.646,-6.115 4.203,7.525 17.052,13.197 23.78,10.383 -3.113,0.115 -7.068,0.064 -10.566,-1.229 -1.469,-0.756 -3.467,-2.322 -3.11,-2.615 9.182,3.43 18.667,2.598 26.612,-3.771 2.021,-1.574 4.229,-4.252 4.867,-4.289 -0.961,1.445 0.164,0.695 -0.574,1.971 2.014,-3.248 -0.875,-1.322 2.082,-5.609 l 1.092,1.504 c -0.406,-2.696 3.348,-5.97 2.967,-10.234 0.861,-1.304 0.961,1.403 0.047,4.403 1.268,-3.328 0.334,-3.863 0.66,-6.609 0.352,0.923 0.814,1.904 1.051,2.878 -0.826,-3.216 0.848,-5.416 1.262,-7.285 -0.408,-0.181 -1.275,1.422 -1.473,-2.377 0.029,-1.65 0.459,-0.865 0.625,-1.271 -0.324,-0.186 -1.174,-1.451 -1.691,-3.877 0.375,-0.57 1.002,1.478 1.512,1.562 -0.328,-1.929 -0.893,-3.4 -0.916,-4.88 -1.49,-3.114 -0.527,0.415 -1.736,-1.337 -1.586,-4.947 1.316,-1.148 1.512,-3.396 2.404,3.483 3.775,8.881 4.404,11.117 -0.48,-2.726 -1.256,-5.367 -2.203,-7.922 0.73,0.307 -1.176,-5.609 0.949,-1.691 C 83.519,18.706 76.074,10.902 69.225,7.24 70.063,8.007 71.121,8.97 70.741,9.121 67.335,7.093 67.934,6.935 67.446,6.078 64.671,4.949 64.489,6.169 62.651,6.08 57.421,3.306 56.413,3.601 51.6,1.863 l 0.219,1.023 c -3.465,-1.154 -4.037,0.438 -7.782,0.004 -0.228,-0.178 1.2,-0.644 2.375,-0.815 -3.35,0.442 -3.193,-0.66 -6.471,0.122 0.808,-0.567 1.662,-0.942 2.524,-1.424 -2.732,0.166 -6.522,1.59 -5.352,0.295 -4.456,1.988 -12.37,4.779 -16.811,8.943 l -0.14,-0.933 c -2.035,2.443 -8.874,7.296 -9.419,10.46 l -0.544,0.127 c -1.059,1.793 -1.744,3.825 -2.584,5.67 -1.385,2.36 -2.03,0.908 -1.833,1.278 -2.724,5.523 -4.077,10.164 -5.246,13.97 0.833,1.245 0.02,7.495 0.335,12.497 -1.368,24.704 17.338,48.69 37.785,54.228 2.997,1.072 7.454,1.031 11.245,1.141 -4.473,-1.279 -5.051,-0.678 -9.408,-2.197 -3.143,-1.48 -3.832,-3.17 -6.058,-5.102 l 0.881,1.557 c -4.366,-1.545 -2.539,-1.912 -6.091,-3.037 l 0.941,-1.229 C 28.751,98.334 26.418,96.056 25.78,94.795 l -1.548,0.061 c -1.86,-2.295 -2.851,-3.949 -2.779,-5.23 l -0.5,0.891 c -0.567,-0.973 -6.843,-8.607 -3.587,-6.83 -0.605,-0.553 -1.409,-0.9 -2.281,-2.484 l 0.663,-0.758 c -1.567,-2.016 -2.884,-4.6 -2.784,-5.461 0.836,1.129 1.416,1.34 1.99,1.533 -3.957,-9.818 -4.179,-0.541 -7.176,-9.994 L 8.412,66.472 C 7.926,65.74 7.631,64.945 7.24,64.165 l 0.276,-2.75 C 4.667,58.121 6.719,47.409 7.13,41.534 7.415,39.145 9.508,36.602 11.1,32.614 l -0.97,-0.167 c 1.854,-3.234 10.586,-12.988 14.63,-12.486 1.959,-2.461 -0.389,-0.009 -0.772,-0.629 4.303,-4.453 5.656,-3.146 8.56,-3.947 3.132,-1.859 -2.688,0.725 -1.203,-0.709 5.414,-1.383 3.837,-3.144 10.9,-3.846 0.745,0.424 -1.729,0.655 -2.35,1.205 4.511,-2.207 14.275,-1.705 20.617,1.225 7.359,3.439 15.627,13.605 15.953,23.17 l 0.371,0.1 c -0.188,3.802 0.582,8.199 -0.752,12.238 l 0.908,-1.912"
                   id="path13765-1-4-1" />
                <path
                   i:knockout="Off"
                   fill="#a80030"
                   d="m 32.372,59.764 -0.252,1.26 c 1.181,1.604 2.118,3.342 3.626,4.596 -1.085,-2.118 -1.891,-2.993 -3.374,-5.856"
                   id="path13767-2-3-4" />
                <path
                   i:knockout="Off"
                   fill="#a80030"
                   d="m 35.164,59.654 c -0.625,-0.691 -0.995,-1.523 -1.409,-2.352 0.396,1.457 1.207,2.709 1.962,3.982 l -0.553,-1.63"
                   id="path13769-04-9-6" />
                <path
                   i:knockout="Off"
                   fill="#a80030"
                   d="m 84.568,48.916 -0.264,0.662 c -0.484,3.438 -1.529,6.84 -3.131,9.994 1.77,-3.328 2.915,-6.968 3.395,-10.656"
                   id="path13771-4-0-6" />
                <path
                   i:knockout="Off"
                   fill="#a80030"
                   d="M 45.527,0.537 C 46.742,0.092 48.514,0.293 49.803,0 48.123,0.141 46.451,0.225 44.8,0.438 l 0.727,0.099"
                   id="path13773-5-5-3" />
                <path
                   i:knockout="Off"
                   fill="#a80030"
                   d="m 2.872,23.219 c 0.28,2.592 -1.95,3.598 0.494,1.889 1.31,-2.951 -0.512,-0.815 -0.494,-1.889"
                   id="path13775-9-6-7" />
                <path
                   i:knockout="Off"
                   fill="#a80030"
                   d="M 0,35.215 C 0.563,33.487 0.665,32.449 0.88,31.449 -0.676,33.438 0.164,33.862 0,35.215"
                   id="path13777-7-3-6" />
              </g>
            </g>
          </g>
          <path
             style="color:#000000;fill:#ffffff;fill-opacity:1;stroke-width:0.71257"
             d="m 235.32221,424.44893 -0.11404,0.15008 0.001,10e-4 21.90589,16.46169 0.23335,-0.77848 -0.0751,-0.0545 -21.94292,-15.77327 -0.009,-0.005 z"
             id="path13787-5-6-2"
             sodipodi:nodetypes="ccccccccc" />
        </g>
      </g>
      <g
         id="g10295"
         transform="matrix(0.33606702,0,0,0.33606702,426.67522,134.50176)"
         style="fill:#ffffff"
         inkscape:export-filename="/home/avronr/Sources/debconf23-artwork/path9717.png"
         inkscape:export-xdpi="96"
         inkscape:export-ydpi="96">
        <path
           d="m -248.34166,-59.162031 v -25.3759 h 5.32499 q 3.82939,0 6.04814,0.75602 2.3831,0.73958 4.32245,2.51458 3.928,3.58287 3.928,9.41735 0,5.85092 -4.09235,9.46665 -2.0544,1.80787 -4.30601,2.51458 -2.10371,0.70672 -5.96597,0.70672 z m 3.82939,-3.5993 h 1.72569 q 2.58032,0 4.28958,-0.54236 1.70926,-0.57524 3.08981,-1.82431 2.82685,-2.58032 2.82685,-6.72198 0,-4.17453 -2.79398,-6.77128 -2.51458,-2.31736 -7.41226,-2.31736 h -1.72569 z"
           id="path69523"
           style="font-size:86.7731px;line-height:1.25;font-family:Futura;-inkscape-font-specification:'Futura, Normal';fill:#ffffff;stroke-width:0.841474" />
        <path
           d="m -209.89982,-80.938621 h -10.17336 v 6.09744 h 9.87753 v 3.5993 h -9.87753 v 8.48055 h 10.17336 v 3.5993 h -14.00276 v -25.3759 h 14.00276 z"
           id="path69525"
           style="font-size:86.7731px;line-height:1.25;font-family:Futura;-inkscape-font-specification:'Futura, Normal';fill:#ffffff;stroke-width:0.841474" />
        <path
           d="m -204.87066,-59.162031 v -25.3759 h 3.81296 q 2.54745,0 4.05948,0.39445 1.52847,0.39444 2.58032,1.33125 1.06829,0.96967 1.69282,2.41597 0.64098,1.46272 0.64098,2.95832 0,2.72824 -2.08727,4.61828 2.02152,0.69028 3.18842,2.41598 1.18333,1.70925 1.18333,3.9773 0,2.97477 -2.1037,5.02916 -1.26551,1.26551 -2.84328,1.75856 -1.72569,0.47663 -4.32245,0.47663 z m 3.82939,-14.47938 h 1.19977 q 2.13657,0 3.12268,-0.93681 1.00254,-0.95323 1.00254,-2.79397 0,-1.79144 -1.01898,-2.71181 -1.01898,-0.9368 -2.95832,-0.9368 h -1.34769 z m 0,10.88008 h 2.36667 q 2.59675,0 3.81296,-1.01898 1.28194,-1.10116 1.28194,-2.79398 0,-1.64352 -1.23264,-2.76111 -1.19977,-1.10115 -4.28958,-1.10115 h -1.93935 z"
           id="path69527"
           style="font-size:86.7731px;line-height:1.25;font-family:Futura;-inkscape-font-specification:'Futura, Normal';fill:#ffffff;stroke-width:0.841474" />
        <path
           d="m -166.21516,-83.173801 v 4.5361 q -3.3199,-2.77754 -6.8699,-2.77754 -3.91157,0 -6.5905,2.81041 -2.69536,2.79398 -2.69536,6.83703 0,3.99374 2.69536,6.73841 2.69537,2.74468 6.60694,2.74468 2.02152,0 3.43495,-0.65741 0.78888,-0.3287 1.62708,-0.8875 0.85463,-0.5588 1.79143,-1.34769 v 4.61829 q -3.28703,1.85717 -6.90277,1.85717 -5.44004,0 -9.28586,-3.79652 -3.8294,-3.82939 -3.8294,-9.23656 0,-4.84837 3.20486,-8.6449 3.94444,-4.65115 10.20623,-4.65115 3.41852,0 6.60694,1.85718 z"
           id="path69529"
           style="font-size:86.7731px;line-height:1.25;font-family:Futura;-inkscape-font-specification:'Futura, Normal';fill:#ffffff;stroke-width:0.841474" />
        <path
           d="m -162.64873,-71.965021 q 0,-5.35787 3.928,-9.20369 3.91157,-3.84583 9.40092,-3.84583 5.4236,0 9.3023,3.8787 3.89513,3.87869 3.89513,9.31873 0,5.47291 -3.91157,9.28587 -3.928,3.82939 -9.48308,3.82939 -4.91412,0 -8.82569,-3.40208 -4.30601,-3.76365 -4.30601,-9.86109 z m 3.86226,0.0493 q 0,4.2074 2.82685,6.9192 2.81041,2.71181 6.49189,2.71181 3.99375,0 6.73842,-2.76111 2.74467,-2.79398 2.74467,-6.80416 0,-4.05949 -2.7118,-6.80416 -2.69537,-2.7611 -6.67268,-2.7611 -3.96087,0 -6.68911,2.7611 -2.72824,2.72824 -2.72824,6.73842 z"
           id="path69531"
           style="font-size:86.7731px;line-height:1.25;font-family:Futura;-inkscape-font-specification:'Futura, Normal';fill:#ffffff;stroke-width:0.841474" />
        <path
           d="m -131.30688,-59.162031 v -27.10158 l 18.506,19.36062 v -17.63494 h 3.82939 v 26.9208 l -18.50599,-19.31132 v 17.76642 z"
           id="path69533"
           style="font-size:86.7731px;line-height:1.25;font-family:Futura;-inkscape-font-specification:'Futura, Normal';fill:#ffffff;stroke-width:0.841474" />
        <path
           d="m -90.218971,-80.938621 h -8.84212 v 6.09744 h 8.52985 v 3.5993 h -8.52985 v 12.07985 h -3.829389 v -25.3759 h 12.671509 z"
           id="path69535"
           style="font-size:86.7731px;line-height:1.25;font-family:Futura;-inkscape-font-specification:'Futura, Normal';fill:#ffffff;stroke-width:0.841474" />
      </g>
      <g
         id="g10286"
         transform="matrix(0.33606702,0,0,0.33606702,426.83354,134.47691)"
         style="fill:#ffffff"
         inkscape:export-filename="/home/avronr/Sources/debconf23-artwork/path9717.png"
         inkscape:export-xdpi="96"
         inkscape:export-ydpi="96">
        <path
           d="m -70.003721,-62.761331 h 9.45022 v 3.5993 h -17.04326 l 8.80925,-10.66643 q 1.29837,-1.5942 2.16944,-2.7611 0.8875,-1.1669 1.34768,-1.95578 0.93681,-1.54491 0.93681,-2.77755 0,-1.77499 -1.24907,-2.97476 -1.24908,-1.19977 -3.08981,-1.19977 -3.84583,0 -4.40463,4.55254 h -3.81296 q 0.92037,-8.02036 8.10254,-8.02036 3.46782,0 5.81804,2.20231 2.36667,2.20231 2.36667,5.45648 0,2.07083 -1.10116,4.05948 -0.55879,1.03542 -1.64351,2.46527 -1.06829,1.41343 -2.7118,3.35278 z"
           id="path69537"
           style="font-size:86.7731px;line-height:1.25;font-family:Futura;-inkscape-font-specification:'Futura, Normal';fill:#ffffff;stroke-width:0.841474" />
        <path
           d="m -48.950281,-70.946041 v -3.2706 q 2.43241,0 3.2706,-0.54236 1.4956,-0.95324 1.4956,-3.05694 0,-1.62709 -1.08472,-2.64607 -1.06829,-1.03541 -2.77754,-1.03541 -1.59421,0 -2.46528,0.77245 -0.83819,0.78889 -1.24907,2.6625 h -3.81296 q 0.59167,-3.58286 2.43241,-5.24282 1.84074,-1.67638 5.14421,-1.67638 3.33633,0 5.44003,1.97221 2.1037,1.95579 2.1037,5.0456 0,3.48426 -2.7611,5.4236 3.15555,1.85718 3.15555,6.03171 0,3.41851 -2.30092,5.58795 -2.30093,2.16945 -5.90023,2.16945 -4.58541,0 -6.80416,-3.36922 -0.92036,-1.41342 -1.16689,-3.91156 h 3.69791 q 0.29583,1.84073 1.42986,2.82684 1.15046,0.96968 2.9912,0.96968 1.85717,0 3.07337,-1.23264 1.2162,-1.26551 1.2162,-3.20485 0,-2.56389 -1.8243,-3.64861 -1.06828,-0.62453 -3.30347,-0.62453 z"
           id="path69539"
           style="font-size:86.7731px;line-height:1.25;font-family:Futura;-inkscape-font-specification:'Futura, Normal';fill:#ffffff;stroke-width:0.841474" />
      </g>
      <g
         id="g10282"
         transform="matrix(0.33606702,0,0,0.33606702,426.67523,135.24489)"
         style="fill:#ffffff"
         inkscape:export-filename="/home/avronr/Sources/debconf23-artwork/path9717.png"
         inkscape:export-xdpi="96"
         inkscape:export-ydpi="96">
        <path
           d="m -22.665062,-75.754047 9.877529,-10.12406 h 5.1113404 l -11.4717494,11.48818 11.5374894,13.88772 h -5.1277704 l -9.137949,-11.29097 -0.78889,0.78891 v 10.50206 h -3.82939 v -25.3759 h 3.82939 z"
           id="path69542"
           style="font-size:86.7731px;line-height:1.25;font-family:Futura;-inkscape-font-specification:'Futura, Normal';fill:#ffffff;stroke-width:0.841474" />
        <path
           d="m -6.8051326,-68.621167 q 0,-3.46782 2.48171,-5.90026 2.48171,-2.4324 6.0481404,-2.4324 3.58287,0 6.08101,2.44885 2.4652802,2.44885 2.4652802,6.01527 0,3.59931 -2.4817102,6.03171 -2.49815,2.41596 -6.13032,2.41596 -3.5993004,0 -6.0317004,-2.46526 -2.43241,-2.4324 -2.43241,-6.11387 z m 3.78009,0.0657 q 0,2.39954 1.28194,3.79652 1.31481997,1.41343 3.4678204,1.41343 2.16944,0 3.46782,-1.39698 1.29838,-1.39698 1.29838,-3.73077 0,-2.3338 -1.29838,-3.73078 -1.31481,-1.41343 -3.46782,-1.41343 -2.12013043,0 -3.4349504,1.41343 -1.31481,1.41343 -1.31481,3.64858 z"
           id="path69544"
           style="font-size:86.7731px;line-height:1.25;font-family:Futura;-inkscape-font-specification:'Futura, Normal';fill:#ffffff;stroke-width:0.841474" />
        <path
           d="m 26.640428,-75.819797 v 4.91414 q -1.26551,-1.54493 -2.26806,-2.12014 -0.98611,-0.59167 -2.31735,-0.59167 -2.08727,0 -3.46782,1.46273 -1.38056,1.46273 -1.38056,3.66503 0,2.25164 1.33125,3.69792 1.34769,1.44628 3.43495,1.44628 1.33125,0 2.35023,-0.57522 0.98611,-0.5588 2.31736,-2.16944 v 4.88125 q -2.25162,1.16688 -4.50324,1.16688 -3.71434,0 -6.21249,-2.39951 -2.49814,-2.41599 -2.49814,-5.99886 0,-3.58287 2.53101,-6.04812 2.53102,-2.4653 6.2125,-2.4653 2.36666,0 4.47036,1.13403 z"
           id="path69546"
           style="font-size:86.7731px;line-height:1.25;font-family:Futura;-inkscape-font-specification:'Futura, Normal';fill:#ffffff;stroke-width:0.841474" />
        <path
           d="m 31.094358,-88.261207 h 3.69791 v 13.08241 q 1.97222,-1.77503 4.35531,-1.77503 2.71181,0 4.33889,1.75858 1.38055,1.52848 1.38055,4.88125 v 9.81179 h -3.69791 v -9.46668 q 0,-1.92289 -0.69028,-2.77751 -0.67384,-0.87107 -2.18587,-0.87107 -1.93935,0 -2.72824,1.19978 -0.77245,1.21618 -0.77245,4.17453 v 7.74095 h -3.69791 z"
           id="path69548"
           style="font-size:86.7731px;line-height:1.25;font-family:Futura;-inkscape-font-specification:'Futura, Normal';fill:#ffffff;stroke-width:0.841474" />
        <path
           d="m 53.248948,-76.510067 v 16.00786 h -3.69791 v -16.00786 z m -4.2567,-6.65623 q 0,-0.96967 0.70671,-1.67639 0.70671,-0.70671 1.69282,-0.70671 1.00254,0 1.70926,0.70671 0.70671,0.69027 0.70671,1.69283 0,1.00253 -0.70671,1.70924 -0.69028,0.70672 -1.69283,0.70672 -1.00254,0 -1.70925,-0.70672 -0.70671,-0.70671 -0.70671,-1.72568 z"
           id="path69550"
           style="font-size:86.7731px;line-height:1.25;font-family:Futura;-inkscape-font-specification:'Futura, Normal';fill:#ffffff;stroke-width:0.841474" />
      </g>
    </g>
  </g>
</svg>
